# File exported by Houdini 12.5.427 (www.sidefx.com)
# 362 points
# 2160 vertices
# 720 primitives
# Bounds: [167.663147, 117.757423, 187.6427] to [352.463135, 301.571045, 372.442688]
g 
v 260.063141 209.66423 187.6427
v 260.063141 226.617661 189.211304
v 276.186798 214.903137 189.211304
v 260.063141 242.99556 193.863907
v 277.123627 233.145981 192.319794
v 291.763123 219.964188 193.863907
v 260.063141 258.241791 201.442566
v 277.577972 249.707733 198.633179
v 292.734375 238.695969 198.633179
v 306.263123 224.675537 201.442566
v 260.063141 271.838684 211.689941
v 277.577972 264.571136 207.819275
v 293.033508 255.044067 206.616638
v 306.870331 243.289032 207.819275
v 319.19455 228.877213 211.689941
v 260.063141 283.324524 224.258072
v 277.123627 277.624634 219.809143
v 292.734375 269.495758 217.668518
v 306.870331 259.225403 217.668518
v 319.425323 246.890671 219.809128
v 330.118225 232.426544 224.258072
v 260.063141 292.309326 238.7202
v 276.186798 288.563416 234.735901
v 291.763123 282.138641 232.289871
v 306.263123 273.253113 231.465179
v 319.19455 262.208557 232.289856
v 330.118225 249.379974 234.735901
v 338.663269 235.203003 238.720184
v 270.028107 195.948624 189.211304
v 287.667572 200.695007 192.319794
v 279.654785 182.698624 193.863907
v 303.559143 205.380753 198.633179
v 297.769897 187.563354 198.633179
v 288.616302 170.364166 201.442566
v 317.695099 209.973816 207.819275
v 313.410309 192.330704 206.616638
v 306.506409 175.538589 207.819275
v 296.608368 159.364059 211.689941
v 329.969299 214.439682 219.809128
v 327.062256 197.081009 217.668488
v 321.662811 180.463196 217.668488
v 313.811493 164.711014 219.809113
v 303.359558 150.071808 224.258072
v 340.083191 218.710922 234.735886
v 338.786224 201.911606 232.289856
v 334.816345 185.375473 231.465164
v 328.30835 169.664001 232.289841
v 319.483246 155.310715 234.73587
v 308.640717 142.802948 238.720184
v 250.09816 195.948624 189.211304
v 260.063141 180.639191 192.319794
v 240.471481 182.698624 193.863907
v 269.430298 166.973404 198.633179
v 250.695984 166.973404 198.633179
v 231.509964 170.364166 201.442566
v 278.166809 154.948639 207.819275
v 260.063141 153.571686 206.616638
v 241.959488 154.948639 207.819275
v 223.517929 159.364059 211.689941
v 286.207031 144.655212 219.809128
v 268.799622 142.055847 217.668503
v 251.326645 142.055847 217.668503
v 233.91925 144.655212 219.809113
v 216.766724 150.071808 224.258072
v 293.394592 136.356201 234.735886
v 277.016693 132.398438 232.289856
v 260.063141 131.064072 231.465179
v 243.109589 132.398438 232.289856
v 226.731689 136.356201 234.735886
v 211.48558 142.802948 238.720184
v 243.939468 214.903137 189.211304
v 232.458694 200.695007 192.319794
v 228.363174 219.964188 193.863907
v 222.356369 187.563354 198.633179
v 216.567139 205.380753 198.633179
v 213.863144 224.675537 201.442566
v 213.619873 175.538589 207.819275
v 206.715973 192.330704 206.616638
v 202.431198 209.973816 207.819275
v 200.931732 228.877213 211.689941
v 206.314789 164.711014 219.809113
v 198.46347 180.463196 217.668488
v 193.064011 197.081009 217.668488
v 190.156982 214.439682 219.809113
v 190.008057 232.426544 224.258072
v 200.643036 155.310715 234.73587
v 191.817932 169.664001 232.289841
v 185.309937 185.375473 231.465164
v 181.340057 201.911606 232.289856
v 180.043076 218.710922 234.735886
v 181.463013 235.203003 238.720184
v 243.002655 233.145981 192.319794
v 227.391907 238.695969 198.633179
v 242.548294 249.707733 198.633179
v 213.255966 243.289032 207.819275
v 227.092773 255.044067 206.616638
v 242.548294 264.571136 207.819275
v 200.700943 246.890671 219.809128
v 213.255966 259.225403 217.668518
v 227.391907 269.495758 217.668518
v 243.002655 277.624634 219.809143
v 190.008072 249.379974 234.735901
v 200.931732 262.208557 232.289856
v 213.863144 273.253113 231.465179
v 228.363174 282.138641 232.289871
v 243.939468 288.563416 234.735901
v 250.09816 297.0401 251.689316
v 232.458694 292.137146 248.834183
v 240.471481 298.80426 265.621155
v 216.567139 284.394775 247.466553
v 222.356369 292.362946 263.402893
v 231.509979 297.54187 280.042694
v 202.431198 274.12442 247.466553
v 206.715988 283.090332 262.709167
v 213.619873 289.524292 278.266296
v 223.517929 293.295715 294.464233
v 190.156982 261.403198 248.834183
v 193.064041 271.080841 263.402893
v 198.463486 278.512512 278.266296
v 206.314804 283.642487 293.312775
v 216.766724 286.210083 308.396088
v 180.043091 246.142151 251.689316
v 181.340103 255.842819 265.621155
v 185.309982 263.975616 280.042694
v 191.817963 270.264343 294.464233
v 200.643051 274.495544 308.396088
v 211.48558 276.525513 321.365204
v 173.884399 227.187637 251.689301
v 173.096497 208.896393 248.834167
v 169.231781 218.577255 265.621155
v 175.549179 191.390091 247.466553
v 169.759949 199.358261 263.402893
v 167.663147 209.66423 280.042694
v 180.948639 174.772278 247.466553
v 173.745605 181.617966 262.709167
v 169.759979 190.172165 278.266296
v 169.231781 200.751205 294.464233
v 189.254303 159.167725 248.834167
v 180.948639 164.92305 263.402893
v 175.549194 172.354752 278.266296
v 173.096497 181.407028 293.312775
v 173.884399 192.140823 308.396088
v 200.643051 144.832916 251.689301
v 191.817963 149.064102 265.621155
v 185.309982 155.352859 280.042694
v 181.340103 163.485641 294.464233
v 180.043091 173.18631 308.396088
v 181.463013 184.125458 321.365204
v 216.766724 133.118393 251.689301
v 233.91925 126.716743 248.834167
v 223.517929 126.03273 265.621155
v 251.326645 123.639656 247.466553
v 241.959488 120.596077 263.402893
v 231.509979 121.786598 280.042694
v 268.799622 123.639656 247.466553
v 260.063141 118.90461 262.709167
v 250.695984 117.757423 278.266296
v 240.471481 120.5242 294.464233
v 286.207031 126.716743 248.834167
v 278.166809 120.596077 263.402893
v 269.430298 117.757423 278.266296
v 260.063141 118.222092 293.312775
v 250.09816 122.288345 308.396088
v 303.359558 133.118393 251.689301
v 296.608337 126.03273 265.621155
v 288.616302 121.786598 280.042694
v 279.654785 120.5242 294.464233
v 270.028107 122.288345 308.396088
v 260.063141 127.019142 321.365173
v 319.483215 144.832916 251.689301
v 330.871979 159.167725 248.834167
v 328.308319 149.064102 265.621155
v 339.177643 174.772278 247.466553
v 339.177643 164.92305 263.402893
v 334.816284 155.352859 280.042694
v 344.577087 191.390091 247.466553
v 346.380676 181.617966 262.709167
v 344.577087 172.354752 278.266296
v 338.786194 163.485641 294.464233
v 347.029785 208.896393 248.834167
v 350.366333 199.358261 263.402893
v 350.366302 190.172165 278.266296
v 347.029785 181.407028 293.312775
v 340.083191 173.18631 308.396088
v 346.241882 227.187637 251.689301
v 350.894501 218.577255 265.621155
v 352.463135 209.66423 280.042694
v 350.894501 200.751205 294.464233
v 346.241882 192.140823 308.396088
v 338.663269 184.125458 321.365204
v 340.083191 246.142151 251.689316
v 329.969299 261.403198 248.834183
v 338.786194 255.842819 265.621155
v 317.695068 274.12442 247.466553
v 327.062256 271.080841 263.402893
v 334.816284 263.975616 280.042694
v 303.559143 284.394775 247.466553
v 313.410278 283.090332 262.709167
v 321.662781 278.512512 278.266296
v 328.308319 270.264343 294.464233
v 287.667603 292.137146 248.834183
v 297.769897 292.362946 263.402893
v 306.506409 289.524292 278.266296
v 313.811462 283.642487 293.312775
v 319.483215 274.495544 308.396088
v 270.028107 297.0401 251.689316
v 279.654785 298.80426 265.621155
v 288.616302 297.54187 280.042694
v 296.608337 293.295715 294.464233
v 303.359558 286.210083 308.396088
v 308.640717 276.525513 321.365204
v 260.063141 301.106384 266.772614
v 250.695984 301.571045 281.819092
v 269.430298 301.571045 281.819092
v 241.959488 298.732391 296.682495
v 260.063141 300.423859 297.376221
v 278.166809 298.732391 296.682495
v 233.91925 292.611725 311.251221
v 251.326645 295.688812 312.618835
v 268.799622 295.688812 312.618835
v 286.207031 292.611725 311.251221
v 226.731689 282.97226 325.349518
v 243.109589 286.930023 327.795532
v 260.063141 288.264404 328.620209
v 277.016693 286.930023 327.795532
v 293.394592 282.97226 325.349518
v 173.096497 237.921417 266.772614
v 169.759964 229.156296 281.819092
v 175.549194 246.973709 281.819092
v 169.759949 219.9702 296.682495
v 173.745605 237.710495 297.376221
v 180.948639 254.405411 296.682495
v 173.096497 210.432068 311.251221
v 175.549164 227.93837 312.618835
v 180.948639 244.556183 312.618835
v 189.254303 260.160736 311.251221
v 180.043076 200.617538 325.349518
v 181.340057 217.416855 327.795532
v 185.309937 233.952988 328.620209
v 191.817932 249.664459 327.795532
v 200.643036 264.017731 325.349518
v 206.314804 135.685974 266.772614
v 213.619873 129.804169 281.819092
v 198.463501 140.815948 281.819092
v 222.356369 126.965515 296.682495
v 206.715988 136.238144 297.376221
v 193.064041 148.24762 296.682495
v 232.458694 127.191299 311.251221
v 216.567139 134.933685 312.618835
v 202.431198 145.204041 312.618835
v 190.156982 157.925278 311.251221
v 243.939468 130.765045 325.349487
v 228.363174 137.189819 327.795532
v 213.863144 146.075348 328.620209
v 200.931732 157.119904 327.795532
v 190.008072 169.948486 325.349487
v 313.811462 135.685974 266.772614
v 321.662781 140.815948 281.819092
v 306.506409 129.804169 281.819092
v 327.062256 148.24762 296.682495
v 313.410278 136.238144 297.376221
v 297.769897 126.965515 296.682495
v 329.969299 157.925278 311.251221
v 317.695068 145.204041 312.618835
v 303.559143 134.933685 312.618835
v 287.667603 127.191299 311.251221
v 330.118225 169.948486 325.349487
v 319.19455 157.119904 327.795532
v 306.263123 146.075348 328.620209
v 291.763123 137.189819 327.795532
v 276.186798 130.765045 325.349487
v 347.029785 237.921417 266.772614
v 344.577087 246.973709 281.819092
v 350.366302 229.156296 281.819092
v 339.177643 254.405411 296.682495
v 346.380676 237.710495 297.376221
v 350.366333 219.9702 296.682495
v 330.871979 260.160736 311.251221
v 339.177643 244.556183 312.618835
v 344.577118 227.93837 312.618835
v 347.029785 210.432068 311.251221
v 319.483246 264.017731 325.349518
v 328.30835 249.664459 327.795532
v 334.816345 233.952988 328.620209
v 338.786224 217.416855 327.795532
v 340.083191 200.617538 325.349518
v 260.063141 209.66423 372.442688
v 270.028107 223.379837 370.874084
v 250.09816 223.379837 370.874084
v 279.654785 236.629837 366.221497
v 260.063141 238.68927 367.765594
v 240.471481 236.629837 366.221497
v 288.616302 248.964294 358.642822
v 269.430298 252.355057 361.452209
v 250.695984 252.355057 361.452209
v 231.509964 248.964294 358.642822
v 296.608368 259.964417 348.395447
v 278.166809 264.379822 352.266113
v 260.063141 265.756775 353.46875
v 241.959488 264.379822 352.266113
v 223.517929 259.964417 348.395447
v 303.359558 269.256653 335.827332
v 286.207031 274.673248 340.276245
v 268.799622 277.272614 342.416901
v 251.326645 277.272614 342.416901
v 233.91925 274.673248 340.276276
v 216.766724 269.256653 335.827332
v 276.186798 204.425323 370.874084
v 291.763123 199.364273 366.221497
v 287.667572 218.633453 367.765594
v 306.263123 194.652924 358.642822
v 303.559143 213.947708 361.452209
v 297.769897 231.765106 361.452209
v 319.19455 190.451248 348.395447
v 317.695099 209.354645 352.266113
v 313.410309 226.997757 353.46875
v 306.506409 243.789871 352.266113
v 330.118225 186.901917 335.827332
v 329.969299 204.888779 340.276245
v 327.062256 222.247452 342.416901
v 321.662811 238.865265 342.416901
v 313.811493 254.617447 340.276276
v 260.063141 192.7108 370.874084
v 260.063141 176.332901 366.221497
v 277.123627 186.18248 367.765594
v 260.063141 161.08667 358.642822
v 277.577972 169.620728 361.452209
v 292.734375 180.632492 361.452209
v 260.063141 147.489792 348.395447
v 277.577972 154.757309 352.266113
v 293.033508 164.284393 353.46875
v 306.870331 176.039429 352.266113
v 260.063141 136.003952 335.827301
v 277.123627 141.703812 340.276245
v 292.734375 149.832703 342.41687
v 306.870331 160.103058 342.41687
v 319.425323 172.43779 340.276245
v 243.939468 204.425323 370.874084
v 228.363174 199.364273 366.221497
v 243.002655 186.18248 367.765594
v 213.863144 194.652924 358.642822
v 227.391907 180.632492 361.452209
v 242.548294 169.620728 361.452209
v 200.931732 190.451248 348.395447
v 213.255966 176.039429 352.266113
v 227.092773 164.284393 353.46875
v 242.548294 154.757309 352.266113
v 190.008057 186.901917 335.827332
v 200.700943 172.43779 340.276245
v 213.255966 160.103058 342.41687
v 227.391907 149.832703 342.41687
v 243.002655 141.703827 340.276245
v 232.458694 218.633453 367.765594
v 222.356369 231.765106 361.452209
v 216.567139 213.947708 361.452209
v 213.619873 243.789871 352.266113
v 206.715973 226.997757 353.46875
v 202.431198 209.354645 352.266113
v 206.314789 254.617447 340.276276
v 198.46347 238.865265 342.416901
v 193.064011 222.247452 342.416901
v 190.156982 204.888779 340.276276
vn 6.29928394e-008 2.54971031e-008 -1
vn 1.56274155e-007 0.176353008 -0.984327078
vn 0.167721957 0.054496076 -0.984326959
vn 5.12662375e-008 0.358263135 -0.933620632
vn 0.18241477 0.251072735 -0.950624704
vn 0.3407287 0.110709183 -0.933620632
vn 4.0015447e-008 0.525731444 -0.850650668
vn 0.185824618 0.432778478 -0.882140636
vn 0.354173511 0.310465723 -0.882140636
vn 0.500000179 0.162459612 -0.850650787
vn 4.1638188e-007 0.674835265 -0.737968504
vn 0.185825005 0.595466673 -0.781593502
vn 0.356821775 0.491123676 -0.794654429
vn 0.508899093 0.360738993 -0.781593919
vn 0.641806602 0.208536431 -0.737968028
vn 1.65025526e-007 0.801541567 -0.597938955
vn 0.182415485 0.737981796 -0.64969784
vn 0.354174167 0.650166452 -0.672193527
vn 0.508898616 0.537751913 -0.672194183
vn 0.645492673 0.401536286 -0.649698257
vn 0.762311161 0.247689754 -0.597939432
vn -1.04988098e-008 0.894427419 -0.447213292
vn 0.167722389 0.856037736 -0.488946468
vn 0.340728492 0.785544991 -0.516549289
vn 0.499999911 0.688191533 -0.525730431
vn 0.641805768 0.566800058 -0.516549051
vn 0.762310922 0.424043328 -0.488947183
vn 0.850651085 0.276392996 -0.447213352
vn 0.103657745 -0.142672658 -0.984326959
vn 0.295153856 -0.0959014371 -0.950624526
vn 0.210581973 -0.289841503 -0.933620393
vn 0.469019711 -0.0429944471 -0.882140577
vn 0.404716551 -0.240900189 -0.882140398
vn 0.309017301 -0.425325274 -0.850650787
vn 0.623744905 0.00727925729 -0.781594098
vn 0.57735002 -0.187592298 -0.794654667
vn 0.500341594 -0.372516096 -0.781594634
vn 0.396658033 -0.545953214 -0.737968504
vn 0.75823164 0.0545623563 -0.649698138
vn 0.727790356 -0.135926664 -0.672194242
vn 0.668690205 -0.317816049 -0.672195137
vn 0.58135134 -0.489818931 -0.649698317
vn 0.471133769 -0.648460388 -0.597939909
vn 0.865968823 0.105017707 -0.488947034
vn 0.852388978 -0.0813049972 -0.516548634
vn 0.809017599 -0.262865245 -0.525730371
vn 0.737387061 -0.435244054 -0.516548991
vn 0.638856053 -0.593964756 -0.488946617
vn 0.525731266 -0.723606884 -0.447213203
vn -0.103657708 -0.142672703 -0.984326959
vn 2.37561135e-008 -0.310342878 -0.950624645
vn -0.210581914 -0.289841235 -0.933620572
vn 0.104045101 -0.459350228 -0.882140636
vn -0.104045063 -0.459350139 -0.882140636
vn -0.30901736 -0.425325692 -0.850650609
vn 0.199670538 -0.590967536 -0.781593919
vn -2.74966538e-008 -0.607062101 -0.794654429
vn -0.199670404 -0.590967357 -0.781593978
vn -0.396657586 -0.545953274 -0.737968683
vn 0.286197513 -0.704260409 -0.649698436
vn 0.095625706 -0.734173715 -0.672193885
vn -0.0956252441 -0.734174013 -0.672193706
vn -0.286197364 -0.704260528 -0.649698436
vn -0.471133441 -0.648461044 -0.597939491
vn 0.367476046 -0.791133046 -0.488947749
vn 0.186076358 -0.835794449 -0.516549289
vn 5.25202744e-008 -0.850651085 -0.525730848
vn -0.186076269 -0.835794628 -0.51654911
vn -0.367475986 -0.791133523 -0.488946944
vn -0.525730848 -0.723607421 -0.447212994
vn -0.167722136 0.054496225 -0.984326899
vn -0.295153975 -0.0959011838 -0.950624526
vn -0.340729088 0.110709719 -0.933620393
vn -0.404716909 -0.240900382 -0.88214016
vn -0.46901983 -0.0429941118 -0.882140458
vn -0.500000179 0.162460044 -0.850650668
vn -0.500341356 -0.372517109 -0.781594276
vn -0.577349901 -0.187592477 -0.794654667
vn -0.623744667 0.00727909338 -0.781594336
vn -0.641806841 0.208535358 -0.737968206
vn -0.58135128 -0.489818573 -0.649698734
vn -0.668690085 -0.317816913 -0.672195017
vn -0.727790117 -0.135926306 -0.6721946
vn -0.758231819 0.0545622483 -0.649697959
vn -0.76231122 0.247690171 -0.597939074
vn -0.638856053 -0.593964696 -0.488946766
vn -0.737387061 -0.435244054 -0.516548872
vn -0.809017241 -0.262865841 -0.52573061
vn -0.852389157 -0.0813046321 -0.516548514
vn -0.865969002 0.105017744 -0.488946855
vn -0.850650907 0.276393503 -0.447213292
vn -0.182414949 0.251072645 -0.950624704
vn -0.354173601 0.310465932 -0.882140577
vn -0.185824767 0.432778686 -0.882140458
vn -0.508898795 0.36073938 -0.781594098
vn -0.356822014 0.491123378 -0.794654548
vn -0.185824856 0.595466614 -0.781593621
vn -0.645492733 0.401536107 -0.649698198
vn -0.508898318 0.537752092 -0.672194421
vn -0.354173869 0.650166333 -0.672194004
vn -0.182414934 0.737981975 -0.6496979
vn -0.762311041 0.424043208 -0.488946974
vn -0.641806126 0.566799581 -0.516549289
vn -0.499999553 0.688191473 -0.525730789
vn -0.340728402 0.785545051 -0.51654923
vn -0.167722329 0.856038034 -0.488945991
vn -0.103657946 0.944213986 -0.312594056
vn -0.295153111 0.893153131 -0.33935535
vn -0.210581928 0.96467644 -0.158286422
vn -0.469019413 0.808238328 -0.356050104
vn -0.404715866 0.89674437 -0.179038316
vn -0.309017181 0.95105648 -5.42709529e-007
vn -0.623744011 0.695824742 -0.356049746
vn -0.577350259 0.794654489 -0.187592119
vn -0.500341892 0.865673602 -0.0163512286
vn -0.396658748 0.904216468 0.15828611
vn -0.758231521 0.556707263 -0.339355111
vn -0.727789998 0.662017524 -0.179037377
vn -0.668690622 0.743361115 -0.0163498987
vn -0.581351638 0.8001616 0.147552356
vn -0.471133918 0.824813843 0.312593788
vn -0.865969062 0.390362352 -0.312593669
vn -0.852388859 0.49837628 -0.158285514
vn -0.809016943 0.587785482 4.14535066e-007
vn -0.7373873 0.656662345 0.158286035
vn -0.638856292 0.702956617 0.312593639
vn -0.525731862 0.723606884 0.447212696
vn -0.930032969 0.193193704 -0.312593877
vn -0.94064647 -0.00470763259 -0.33935523
vn -0.982535243 0.0978264138 -0.158285916
vn -0.913615286 -0.196305364 -0.356049627
vn -0.977918804 -0.10779842 -0.179037333
vn -1 1.70065633e-007 -1.37553089e-008
vn -0.854515553 -0.378195107 -0.356050044
vn -0.934172392 -0.30353117 -0.187592223
vn -0.977918744 -0.208344892 -0.0163498819
vn -0.982535303 -0.0978264138 0.158285588
vn -0.763767004 -0.549088299 -0.33935535
vn -0.854515493 -0.487594962 -0.17903769
vn -0.913615048 -0.406251341 -0.0163500644
vn -0.940646529 -0.30563432 0.147552639
vn -0.930032849 -0.19319351 0.312594354
vn -0.638856232 -0.702956498 -0.312593877
vn -0.737387002 -0.656662941 -0.15828535
vn -0.809016943 -0.587785482 -2.03203442e-007
vn -0.852388501 -0.498376966 0.158285379
vn -0.865968764 -0.390362591 0.312594116
vn -0.850650907 -0.276393473 0.447213292
vn -0.471134305 -0.824813604 -0.312593907
vn -0.286197484 -0.896062911 -0.339355469
vn -0.396658301 -0.904216528 -0.158286318
vn -0.095624961 -0.929561555 -0.356049657
vn -0.199670181 -0.963367581 -0.179038212
vn -0.309016854 -0.951056659 2.06954923e-007
vn 0.095624879 -0.929561377 -0.356049865
vn -2.87464985e-008 -0.982246935 -0.187592357
vn -0.104045354 -0.994438112 -0.0163500328
vn -0.210581735 -0.964676619 0.158285707
vn 0.286197692 -0.896062911 -0.33935535
vn 0.199670419 -0.963367522 -0.179038152
vn 0.104045331 -0.994438231 -0.0163494572
vn 1.62541838e-008 -0.989054084 0.147552878
vn -0.103657693 -0.944214046 0.312593758
vn 0.471134365 -0.824813783 -0.312593609
vn 0.396658301 -0.904216528 -0.158286348
vn 0.309016734 -0.951056659 3.79521538e-007
vn 0.210581779 -0.964676619 0.158285514
vn 0.103657454 -0.944214165 0.312593788
vn -1.25985665e-007 -0.894427419 0.447213173
vn 0.638856053 -0.702956975 -0.312593222
vn 0.763766468 -0.549089015 -0.339355081
vn 0.737387002 -0.656662762 -0.15828523
vn 0.854515851 -0.378194749 -0.356049865
vn 0.854515493 -0.487595201 -0.179037496
vn 0.809016526 -0.5877859 -5.0081826e-007
vn 0.913615286 -0.196304962 -0.356049687
vn 0.93417263 -0.303530097 -0.187592387
vn 0.913614929 -0.40625158 -0.0163502228
vn 0.852388442 -0.498376966 0.15828526
vn 0.94064641 -0.00470852805 -0.339355558
vn 0.977918625 -0.107799463 -0.179037616
vn 0.977918744 -0.208344921 -0.0163499154
vn 0.94064641 -0.305634558 0.147552565
vn 0.865968764 -0.390362799 0.312593997
vn 0.930032849 0.193194017 -0.312594175
vn 0.982535303 0.0978261232 -0.158285677
vn 1 1.03790036e-007 -3.18872999e-008
vn 0.982535303 -0.0978260264 0.158285543
vn 0.93003267 -0.193193957 0.312594593
vn 0.850650787 -0.276394129 0.447213084
vn 0.865968764 0.39036262 -0.312594026
vn 0.758231223 0.556707442 -0.339355618
vn 0.852388859 0.498376399 -0.158285201
vn 0.623744428 0.695824027 -0.356050402
vn 0.7277897 0.66201818 -0.179036766
vn 0.809016466 0.587785959 9.74125896e-007
vn 0.469020098 0.808238089 -0.356049776
vn 0.577350318 0.794654489 -0.187592492
vn 0.668690443 0.743361175 -0.0163496006
vn 0.737387002 0.656662703 0.158286229
vn 0.295153081 0.893153369 -0.339354903
vn 0.404715776 0.896744549 -0.179037824
vn 0.50034219 0.865673363 -0.0163514037
vn 0.581352115 0.800161064 0.147553027
vn 0.638855934 0.702956617 0.312594205
vn 0.103657916 0.944213986 -0.312594146
vn 0.210581854 0.96467644 -0.15828608
vn 0.309017003 0.9510566 -5.71470594e-007
vn 0.396658808 0.904216349 0.158285916
vn 0.471134007 0.824813843 0.312593907
vn 0.525732338 0.723606288 0.447213024
vn -5.00128863e-008 0.989053965 -0.147553667
vn -0.104045376 0.994438231 0.0163499136
vn 0.104045331 0.994438112 0.0163501557
vn -0.199670687 0.963367701 0.179037198
vn -5.99927006e-008 0.982246876 0.187592655
vn 0.199670956 0.963367522 0.179037631
vn -0.286197633 0.896062911 0.339355558
vn -0.0956249684 0.929561555 0.356049478
vn 0.0956249088 0.929561496 0.356049746
vn 0.286197543 0.89606297 0.33935526
vn -0.367476285 0.791133344 0.488947064
vn -0.186076462 0.835794568 0.51654923
vn 8.37823393e-008 0.850651026 0.525730789
vn 0.186076403 0.835794151 0.516549647
vn 0.367476374 0.791132867 0.4889476
vn -0.94064647 0.30563432 -0.147552967
vn -0.977918744 0.208344832 0.0163498279
vn -0.913614988 0.406251699 0.0163498446
vn -0.977918863 0.107797921 0.179037482
vn -0.934172332 0.303531408 0.187592268
vn -0.854515612 0.487594873 0.179037631
vn -0.94064635 0.00470740907 0.339355439
vn -0.913615048 0.196305424 0.356050014
vn -0.854515612 0.378195077 0.356049806
vn -0.763766885 0.549088657 0.339354903
vn -0.865969181 -0.105017588 0.488946676
vn -0.852388859 0.0813051015 0.516548932
vn -0.809017241 0.262865961 0.52573061
vn -0.737387419 0.435244083 0.516548395
vn -0.638855934 0.593965113 0.488946348
vn -0.581351399 -0.80016166 -0.147552758
vn -0.500342011 -0.865673423 0.0163502172
vn -0.668690383 -0.743361235 0.0163500961
vn -0.404716134 -0.896744311 0.179037869
vn -0.57735014 -0.794654727 0.187592015
vn -0.727789879 -0.662017882 0.179037035
vn -0.295153469 -0.893153191 0.339354962
vn -0.469020069 -0.808238149 0.356049657
vn -0.623744428 -0.695824504 0.356049627
vn -0.758231103 -0.55670774 0.339355141
vn -0.167721242 -0.856037378 0.488947302
vn -0.3407287 -0.785544932 0.51654923
vn -0.499999613 -0.688191354 0.525731087
vn -0.641806781 -0.566799045 0.516549051
vn -0.762310863 -0.424043447 0.488947183
vn 0.581351876 -0.800161302 -0.147553071
vn 0.668690085 -0.743361533 0.0163498614
vn 0.500342309 -0.865673304 0.0163501687
vn 0.72778976 -0.662017882 0.179037169
vn 0.57735008 -0.794654727 0.18759203
vn 0.404716134 -0.896744549 0.179037333
vn 0.758231342 -0.556707144 0.339355648
vn 0.623744845 -0.695823789 0.356050193
vn 0.469020426 -0.80823797 0.356049359
vn 0.295153528 -0.89315325 0.339354694
vn 0.762310982 -0.424043149 0.488947302
vn 0.641806424 -0.566799819 0.516548514
vn 0.499999762 -0.688191295 0.525730968
vn 0.340728879 -0.785544932 0.516549051
vn 0.167721018 -0.856037617 0.488947064
vn 0.940646648 0.305634052 -0.147552669
vn 0.913614988 0.40625152 0.0163501073
vn 0.977918684 0.208345205 0.0163497981
vn 0.854515314 0.487595201 0.179037645
vn 0.934172392 0.303531229 0.187592015
vn 0.977918684 0.107799612 0.179037094
vn 0.763766289 0.549089313 0.339355141
vn 0.854516089 0.378193974 0.356050074
vn 0.913615227 0.196304634 0.356050074
vn 0.940646291 0.00470763352 0.339355558
vn 0.638855815 0.593965054 0.488946676
vn 0.737387419 0.435244173 0.516548455
vn 0.809016943 0.262865871 0.525730908
vn 0.85238874 0.0813053399 0.516549051
vn 0.865968704 -0.105018087 0.488947272
vn 3.97454784e-007 0 1
vn 0.103657417 0.14267242 0.984327078
vn -0.103657708 0.14267236 0.984327078
vn 0.210581794 0.289841264 0.933620572
vn -5.02629348e-007 0.310342669 0.950624764
vn -0.210581958 0.289840966 0.933620632
vn 0.309017181 0.425325006 0.850650966
vn 0.104045153 0.45935002 0.882140636
vn -0.104045123 0.459350258 0.882140577
vn -0.309017599 0.425325543 0.850650609
vn 0.396658212 0.545953214 0.737968326
vn 0.199670836 0.590967357 0.781593919
vn 2.66217569e-007 0.607061386 0.794654906
vn -0.199670181 0.590967119 0.781594396
vn -0.396658361 0.545953214 0.737968326
vn 0.471133441 0.648460984 0.597939432
vn 0.286196738 0.704261482 0.649697781
vn 0.0956257284 0.734173894 0.672193706
vn -0.0956254974 0.734173954 0.672193646
vn -0.286196947 0.704261005 0.649698079
vn -0.471134424 0.648460627 0.597939074
vn 0.167721555 -0.0544959158 0.984327078
vn 0.340729088 -0.11070922 0.933620512
vn 0.295153797 0.0959015787 0.950624526
vn 0.500000298 -0.162459701 0.850650728
vn 0.469020188 0.042994529 0.882140338
vn 0.404716134 0.240900293 0.882140577
vn 0.641806841 -0.208536312 0.737967849
vn 0.623745322 -0.00727927592 0.78159368
vn 0.57735002 0.187592342 0.794654727
vn 0.500341773 0.372515917 0.781594574
vn 0.76231128 -0.247689277 0.597939432
vn 0.758231819 -0.0545618944 0.649698019
vn 0.727789938 0.135927171 0.6721946
vn 0.668690264 0.317816615 0.672194898
vn 0.581351578 0.489818603 0.649698377
vn 4.43818607e-007 -0.176352665 0.984327078
vn 2.87591149e-007 -0.358263284 0.933620632
vn 0.182415918 -0.251072615 0.950624466
vn 5.25202637e-008 -0.525731385 0.850650609
vn 0.185825199 -0.432778984 0.882140338
vn 0.354173511 -0.310466081 0.882140577
vn -2.57581547e-007 -0.674835503 0.737968147
vn 0.185824886 -0.595466375 0.78159374
vn 0.356822252 -0.491123706 0.79465425
vn 0.508899391 -0.360739231 0.781593561
vn -1.32520469e-007 -0.801541626 0.597938955
vn 0.182414874 -0.737981796 0.649698079
vn 0.35417363 -0.650166094 0.672194362
vn 0.508899212 -0.537751913 0.672193706
vn 0.645493209 -0.401535928 0.6496979
vn -0.167721048 -0.0544960164 0.984327078
vn -0.340728402 -0.11070963 0.933620632
vn -0.182415321 -0.251072913 0.950624466
vn -0.499999613 -0.162460208 0.850651026
vn -0.354172677 -0.31046629 0.882140875
vn -0.185824573 -0.432778716 0.882140458
vn -0.641806126 -0.208535701 0.737968683
vn -0.508898914 -0.360739768 0.78159374
vn -0.356821924 -0.491123676 0.794654429
vn -0.185824692 -0.595466554 0.78159368
vn -0.76231128 -0.247690752 0.597938716
vn -0.645492554 -0.401536196 0.649698496
vn -0.508898735 -0.537752211 0.672194004
vn -0.354173571 -0.650166333 0.672194183
vn -0.182415158 -0.737981856 0.649697959
vn -0.295153707 0.0959014371 0.950624645
vn -0.404715985 0.240900055 0.882140636
vn -0.469020098 0.0429942645 0.882140458
vn -0.500341833 0.37251702 0.781594098
vn -0.577349901 0.187592521 0.794654727
vn -0.623744726 -0.00727910269 0.781594336
vn -0.581351399 0.489818454 0.649698615
vn -0.668689907 0.317817092 0.672194958
vn -0.727789819 0.135926619 0.672194839
vn -0.75823164 -0.0545623079 0.649698198
g 
f 3//3 1//1 2//2
f 5//5 2//2 4//4
f 6//6 3//3 5//5
f 8//8 4//4 7//7
f 9//9 5//5 8//8
f 10//10 6//6 9//9
f 12//12 7//7 11//11
f 13//13 8//8 12//12
f 14//14 9//9 13//13
f 15//15 10//10 14//14
f 17//17 11//11 16//16
f 18//18 12//12 17//17
f 19//19 13//13 18//18
f 20//20 14//14 19//19
f 21//21 15//15 20//20
f 23//23 16//16 22//22
f 24//24 17//17 23//23
f 25//25 18//18 24//24
f 26//26 19//19 25//25
f 27//27 20//20 26//26
f 28//28 21//21 27//27
f 3//3 2//2 5//5
f 5//5 4//4 8//8
f 6//6 5//5 9//9
f 8//8 7//7 12//12
f 9//9 8//8 13//13
f 10//10 9//9 14//14
f 12//12 11//11 17//17
f 13//13 12//12 18//18
f 14//14 13//13 19//19
f 15//15 14//14 20//20
f 17//17 16//16 23//23
f 18//18 17//17 24//24
f 19//19 18//18 25//25
f 20//20 19//19 26//26
f 21//21 20//20 27//27
f 29//29 1//1 3//3
f 30//30 3//3 6//6
f 31//31 29//29 30//30
f 32//32 6//6 10//10
f 33//33 30//30 32//32
f 34//34 31//31 33//33
f 35//35 10//10 15//15
f 36//36 32//32 35//35
f 37//37 33//33 36//36
f 38//38 34//34 37//37
f 39//39 15//15 21//21
f 40//40 35//35 39//39
f 41//41 36//36 40//40
f 42//42 37//37 41//41
f 43//43 38//38 42//42
f 44//44 21//21 28//28
f 45//45 39//39 44//44
f 46//46 40//40 45//45
f 47//47 41//41 46//46
f 48//48 42//42 47//47
f 49//49 43//43 48//48
f 29//29 3//3 30//30
f 30//30 6//6 32//32
f 31//31 30//30 33//33
f 32//32 10//10 35//35
f 33//33 32//32 36//36
f 34//34 33//33 37//37
f 35//35 15//15 39//39
f 36//36 35//35 40//40
f 37//37 36//36 41//41
f 38//38 37//37 42//42
f 39//39 21//21 44//44
f 40//40 39//39 45//45
f 41//41 40//40 46//46
f 42//42 41//41 47//47
f 43//43 42//42 48//48
f 50//50 1//1 29//29
f 51//51 29//29 31//31
f 52//52 50//50 51//51
f 53//53 31//31 34//34
f 54//54 51//51 53//53
f 55//55 52//52 54//54
f 56//56 34//34 38//38
f 57//57 53//53 56//56
f 58//58 54//54 57//57
f 59//59 55//55 58//58
f 60//60 38//38 43//43
f 61//61 56//56 60//60
f 62//62 57//57 61//61
f 63//63 58//58 62//62
f 64//64 59//59 63//63
f 65//65 43//43 49//49
f 66//66 60//60 65//65
f 67//67 61//61 66//66
f 68//68 62//62 67//67
f 69//69 63//63 68//68
f 70//70 64//64 69//69
f 50//50 29//29 51//51
f 51//51 31//31 53//53
f 52//52 51//51 54//54
f 53//53 34//34 56//56
f 54//54 53//53 57//57
f 55//55 54//54 58//58
f 56//56 38//38 60//60
f 57//57 56//56 61//61
f 58//58 57//57 62//62
f 59//59 58//58 63//63
f 60//60 43//43 65//65
f 61//61 60//60 66//66
f 62//62 61//61 67//67
f 63//63 62//62 68//68
f 64//64 63//63 69//69
f 71//71 1//1 50//50
f 72//72 50//50 52//52
f 73//73 71//71 72//72
f 74//74 52//52 55//55
f 75//75 72//72 74//74
f 76//76 73//73 75//75
f 77//77 55//55 59//59
f 78//78 74//74 77//77
f 79//79 75//75 78//78
f 80//80 76//76 79//79
f 81//81 59//59 64//64
f 82//82 77//77 81//81
f 83//83 78//78 82//82
f 84//84 79//79 83//83
f 85//85 80//80 84//84
f 86//86 64//64 70//70
f 87//87 81//81 86//86
f 88//88 82//82 87//87
f 89//89 83//83 88//88
f 90//90 84//84 89//89
f 91//91 85//85 90//90
f 71//71 50//50 72//72
f 72//72 52//52 74//74
f 73//73 72//72 75//75
f 74//74 55//55 77//77
f 75//75 74//74 78//78
f 76//76 75//75 79//79
f 77//77 59//59 81//81
f 78//78 77//77 82//82
f 79//79 78//78 83//83
f 80//80 79//79 84//84
f 81//81 64//64 86//86
f 82//82 81//81 87//87
f 83//83 82//82 88//88
f 84//84 83//83 89//89
f 85//85 84//84 90//90
f 2//2 1//1 71//71
f 92//92 71//71 73//73
f 4//4 2//2 92//92
f 93//93 73//73 76//76
f 94//94 92//92 93//93
f 7//7 4//4 94//94
f 95//95 76//76 80//80
f 96//96 93//93 95//95
f 97//97 94//94 96//96
f 11//11 7//7 97//97
f 98//98 80//80 85//85
f 99//99 95//95 98//98
f 100//100 96//96 99//99
f 101//101 97//97 100//100
f 16//16 11//11 101//101
f 102//102 85//85 91//91
f 103//103 98//98 102//102
f 104//104 99//99 103//103
f 105//105 100//100 104//104
f 106//106 101//101 105//105
f 22//22 16//16 106//106
f 2//2 71//71 92//92
f 92//92 73//73 93//93
f 4//4 92//92 94//94
f 93//93 76//76 95//95
f 94//94 93//93 96//96
f 7//7 94//94 97//97
f 95//95 80//80 98//98
f 96//96 95//95 99//99
f 97//97 96//96 100//100
f 11//11 97//97 101//101
f 98//98 85//85 102//102
f 99//99 98//98 103//103
f 100//100 99//99 104//104
f 101//101 100//100 105//105
f 16//16 101//101 106//106
f 107//107 22//22 106//106
f 108//108 106//106 105//105
f 109//109 107//107 108//108
f 110//110 105//105 104//104
f 111//111 108//108 110//110
f 112//112 109//109 111//111
f 113//113 104//104 103//103
f 114//114 110//110 113//113
f 115//115 111//111 114//114
f 116//116 112//112 115//115
f 117//117 103//103 102//102
f 118//118 113//113 117//117
f 119//119 114//114 118//118
f 120//120 115//115 119//119
f 121//121 116//116 120//120
f 122//122 102//102 91//91
f 123//123 117//117 122//122
f 124//124 118//118 123//123
f 125//125 119//119 124//124
f 126//126 120//120 125//125
f 127//127 121//121 126//126
f 107//107 106//106 108//108
f 108//108 105//105 110//110
f 109//109 108//108 111//111
f 110//110 104//104 113//113
f 111//111 110//110 114//114
f 112//112 111//111 115//115
f 113//113 103//103 117//117
f 114//114 113//113 118//118
f 115//115 114//114 119//119
f 116//116 115//115 120//120
f 117//117 102//102 122//122
f 118//118 117//117 123//123
f 119//119 118//118 124//124
f 120//120 119//119 125//125
f 121//121 120//120 126//126
f 128//128 91//91 90//90
f 129//129 90//90 89//89
f 130//130 128//128 129//129
f 131//131 89//89 88//88
f 132//132 129//129 131//131
f 133//133 130//130 132//132
f 134//134 88//88 87//87
f 135//135 131//131 134//134
f 136//136 132//132 135//135
f 137//137 133//133 136//136
f 138//138 87//87 86//86
f 139//139 134//134 138//138
f 140//140 135//135 139//139
f 141//141 136//136 140//140
f 142//142 137//137 141//141
f 143//143 86//86 70//70
f 144//144 138//138 143//143
f 145//145 139//139 144//144
f 146//146 140//140 145//145
f 147//147 141//141 146//146
f 148//148 142//142 147//147
f 128//128 90//90 129//129
f 129//129 89//89 131//131
f 130//130 129//129 132//132
f 131//131 88//88 134//134
f 132//132 131//131 135//135
f 133//133 132//132 136//136
f 134//134 87//87 138//138
f 135//135 134//134 139//139
f 136//136 135//135 140//140
f 137//137 136//136 141//141
f 138//138 86//86 143//143
f 139//139 138//138 144//144
f 140//140 139//139 145//145
f 141//141 140//140 146//146
f 142//142 141//141 147//147
f 149//149 70//70 69//69
f 150//150 69//69 68//68
f 151//151 149//149 150//150
f 152//152 68//68 67//67
f 153//153 150//150 152//152
f 154//154 151//151 153//153
f 155//155 67//67 66//66
f 156//156 152//152 155//155
f 157//157 153//153 156//156
f 158//158 154//154 157//157
f 159//159 66//66 65//65
f 160//160 155//155 159//159
f 161//161 156//156 160//160
f 162//162 157//157 161//161
f 163//163 158//158 162//162
f 164//164 65//65 49//49
f 165//165 159//159 164//164
f 166//166 160//160 165//165
f 167//167 161//161 166//166
f 168//168 162//162 167//167
f 169//169 163//163 168//168
f 149//149 69//69 150//150
f 150//150 68//68 152//152
f 151//151 150//150 153//153
f 152//152 67//67 155//155
f 153//153 152//152 156//156
f 154//154 153//153 157//157
f 155//155 66//66 159//159
f 156//156 155//155 160//160
f 157//157 156//156 161//161
f 158//158 157//157 162//162
f 159//159 65//65 164//164
f 160//160 159//159 165//165
f 161//161 160//160 166//166
f 162//162 161//161 167//167
f 163//163 162//162 168//168
f 170//170 49//49 48//48
f 171//171 48//48 47//47
f 172//172 170//170 171//171
f 173//173 47//47 46//46
f 174//174 171//171 173//173
f 175//175 172//172 174//174
f 176//176 46//46 45//45
f 177//177 173//173 176//176
f 178//178 174//174 177//177
f 179//179 175//175 178//178
f 180//180 45//45 44//44
f 181//181 176//176 180//180
f 182//182 177//177 181//181
f 183//183 178//178 182//182
f 184//184 179//179 183//183
f 185//185 44//44 28//28
f 186//186 180//180 185//185
f 187//187 181//181 186//186
f 188//188 182//182 187//187
f 189//189 183//183 188//188
f 190//190 184//184 189//189
f 170//170 48//48 171//171
f 171//171 47//47 173//173
f 172//172 171//171 174//174
f 173//173 46//46 176//176
f 174//174 173//173 177//177
f 175//175 174//174 178//178
f 176//176 45//45 180//180
f 177//177 176//176 181//181
f 178//178 177//177 182//182
f 179//179 178//178 183//183
f 180//180 44//44 185//185
f 181//181 180//180 186//186
f 182//182 181//181 187//187
f 183//183 182//182 188//188
f 184//184 183//183 189//189
f 191//191 28//28 27//27
f 192//192 27//27 26//26
f 193//193 191//191 192//192
f 194//194 26//26 25//25
f 195//195 192//192 194//194
f 196//196 193//193 195//195
f 197//197 25//25 24//24
f 198//198 194//194 197//197
f 199//199 195//195 198//198
f 200//200 196//196 199//199
f 201//201 24//24 23//23
f 202//202 197//197 201//201
f 203//203 198//198 202//202
f 204//204 199//199 203//203
f 205//205 200//200 204//204
f 206//206 23//23 22//22
f 207//207 201//201 206//206
f 208//208 202//202 207//207
f 209//209 203//203 208//208
f 210//210 204//204 209//209
f 211//211 205//205 210//210
f 191//191 27//27 192//192
f 192//192 26//26 194//194
f 193//193 192//192 195//195
f 194//194 25//25 197//197
f 195//195 194//194 198//198
f 196//196 195//195 199//199
f 197//197 24//24 201//201
f 198//198 197//197 202//202
f 199//199 198//198 203//203
f 200//200 199//199 204//204
f 201//201 23//23 206//206
f 202//202 201//201 207//207
f 203//203 202//202 208//208
f 204//204 203//203 209//209
f 205//205 204//204 210//210
f 206//206 22//22 107//107
f 212//212 107//107 109//109
f 207//207 206//206 212//212
f 213//213 109//109 112//112
f 214//214 212//212 213//213
f 208//208 207//207 214//214
f 215//215 112//112 116//116
f 216//216 213//213 215//215
f 217//217 214//214 216//216
f 209//209 208//208 217//217
f 218//218 116//116 121//121
f 219//219 215//215 218//218
f 220//220 216//216 219//219
f 221//221 217//217 220//220
f 210//210 209//209 221//221
f 222//222 121//121 127//127
f 223//223 218//218 222//222
f 224//224 219//219 223//223
f 225//225 220//220 224//224
f 226//226 221//221 225//225
f 211//211 210//210 226//226
f 206//206 107//107 212//212
f 212//212 109//109 213//213
f 207//207 212//212 214//214
f 213//213 112//112 215//215
f 214//214 213//213 216//216
f 208//208 214//214 217//217
f 215//215 116//116 218//218
f 216//216 215//215 219//219
f 217//217 216//216 220//220
f 209//209 217//217 221//221
f 218//218 121//121 222//222
f 219//219 218//218 223//223
f 220//220 219//219 224//224
f 221//221 220//220 225//225
f 210//210 221//221 226//226
f 122//122 91//91 128//128
f 227//227 128//128 130//130
f 123//123 122//122 227//227
f 228//228 130//130 133//133
f 229//229 227//227 228//228
f 124//124 123//123 229//229
f 230//230 133//133 137//137
f 231//231 228//228 230//230
f 232//232 229//229 231//231
f 125//125 124//124 232//232
f 233//233 137//137 142//142
f 234//234 230//230 233//233
f 235//235 231//231 234//234
f 236//236 232//232 235//235
f 126//126 125//125 236//236
f 237//237 142//142 148//148
f 238//238 233//233 237//237
f 239//239 234//234 238//238
f 240//240 235//235 239//239
f 241//241 236//236 240//240
f 127//127 126//126 241//241
f 122//122 128//128 227//227
f 227//227 130//130 228//228
f 123//123 227//227 229//229
f 228//228 133//133 230//230
f 229//229 228//228 231//231
f 124//124 229//229 232//232
f 230//230 137//137 233//233
f 231//231 230//230 234//234
f 232//232 231//231 235//235
f 125//125 232//232 236//236
f 233//233 142//142 237//237
f 234//234 233//233 238//238
f 235//235 234//234 239//239
f 236//236 235//235 240//240
f 126//126 236//236 241//241
f 143//143 70//70 149//149
f 242//242 149//149 151//151
f 144//144 143//143 242//242
f 243//243 151//151 154//154
f 244//244 242//242 243//243
f 145//145 144//144 244//244
f 245//245 154//154 158//158
f 246//246 243//243 245//245
f 247//247 244//244 246//246
f 146//146 145//145 247//247
f 248//248 158//158 163//163
f 249//249 245//245 248//248
f 250//250 246//246 249//249
f 251//251 247//247 250//250
f 147//147 146//146 251//251
f 252//252 163//163 169//169
f 253//253 248//248 252//252
f 254//254 249//249 253//253
f 255//255 250//250 254//254
f 256//256 251//251 255//255
f 148//148 147//147 256//256
f 143//143 149//149 242//242
f 242//242 151//151 243//243
f 144//144 242//242 244//244
f 243//243 154//154 245//245
f 244//244 243//243 246//246
f 145//145 244//244 247//247
f 245//245 158//158 248//248
f 246//246 245//245 249//249
f 247//247 246//246 250//250
f 146//146 247//247 251//251
f 248//248 163//163 252//252
f 249//249 248//248 253//253
f 250//250 249//249 254//254
f 251//251 250//250 255//255
f 147//147 251//251 256//256
f 164//164 49//49 170//170
f 257//257 170//170 172//172
f 165//165 164//164 257//257
f 258//258 172//172 175//175
f 259//259 257//257 258//258
f 166//166 165//165 259//259
f 260//260 175//175 179//179
f 261//261 258//258 260//260
f 262//262 259//259 261//261
f 167//167 166//166 262//262
f 263//263 179//179 184//184
f 264//264 260//260 263//263
f 265//265 261//261 264//264
f 266//266 262//262 265//265
f 168//168 167//167 266//266
f 267//267 184//184 190//190
f 268//268 263//263 267//267
f 269//269 264//264 268//268
f 270//270 265//265 269//269
f 271//271 266//266 270//270
f 169//169 168//168 271//271
f 164//164 170//170 257//257
f 257//257 172//172 258//258
f 165//165 257//257 259//259
f 258//258 175//175 260//260
f 259//259 258//258 261//261
f 166//166 259//259 262//262
f 260//260 179//179 263//263
f 261//261 260//260 264//264
f 262//262 261//261 265//265
f 167//167 262//262 266//266
f 263//263 184//184 267//267
f 264//264 263//263 268//268
f 265//265 264//264 269//269
f 266//266 265//265 270//270
f 168//168 266//266 271//271
f 185//185 28//28 191//191
f 272//272 191//191 193//193
f 186//186 185//185 272//272
f 273//273 193//193 196//196
f 274//274 272//272 273//273
f 187//187 186//186 274//274
f 275//275 196//196 200//200
f 276//276 273//273 275//275
f 277//277 274//274 276//276
f 188//188 187//187 277//277
f 278//278 200//200 205//205
f 279//279 275//275 278//278
f 280//280 276//276 279//279
f 281//281 277//277 280//280
f 189//189 188//188 281//281
f 282//282 205//205 211//211
f 283//283 278//278 282//282
f 284//284 279//279 283//283
f 285//285 280//280 284//284
f 286//286 281//281 285//285
f 190//190 189//189 286//286
f 185//185 191//191 272//272
f 272//272 193//193 273//273
f 186//186 272//272 274//274
f 273//273 196//196 275//275
f 274//274 273//273 276//276
f 187//187 274//274 277//277
f 275//275 200//200 278//278
f 276//276 275//275 279//279
f 277//277 276//276 280//280
f 188//188 277//277 281//281
f 278//278 205//205 282//282
f 279//279 278//278 283//283
f 280//280 279//279 284//284
f 281//281 280//280 285//285
f 189//189 281//281 286//286
f 289//289 287//287 288//288
f 291//291 288//288 290//290
f 292//292 289//289 291//291
f 294//294 290//290 293//293
f 295//295 291//291 294//294
f 296//296 292//292 295//295
f 298//298 293//293 297//297
f 299//299 294//294 298//298
f 300//300 295//295 299//299
f 301//301 296//296 300//300
f 303//303 297//297 302//302
f 304//304 298//298 303//303
f 305//305 299//299 304//304
f 306//306 300//300 305//305
f 307//307 301//301 306//306
f 226//226 302//302 211//211
f 225//225 303//303 226//226
f 224//224 304//304 225//225
f 223//223 305//305 224//224
f 222//222 306//306 223//223
f 127//127 307//307 222//222
f 289//289 288//288 291//291
f 291//291 290//290 294//294
f 292//292 291//291 295//295
f 294//294 293//293 298//298
f 295//295 294//294 299//299
f 296//296 295//295 300//300
f 298//298 297//297 303//303
f 299//299 298//298 304//304
f 300//300 299//299 305//305
f 301//301 300//300 306//306
f 303//303 302//302 226//226
f 304//304 303//303 225//225
f 305//305 304//304 224//224
f 306//306 305//305 223//223
f 307//307 306//306 222//222
f 288//288 287//287 308//308
f 310//310 308//308 309//309
f 290//290 288//288 310//310
f 312//312 309//309 311//311
f 313//313 310//310 312//312
f 293//293 290//290 313//313
f 315//315 311//311 314//314
f 316//316 312//312 315//315
f 317//317 313//313 316//316
f 297//297 293//293 317//317
f 319//319 314//314 318//318
f 320//320 315//315 319//319
f 321//321 316//316 320//320
f 322//322 317//317 321//321
f 302//302 297//297 322//322
f 286//286 318//318 190//190
f 285//285 319//319 286//286
f 284//284 320//320 285//285
f 283//283 321//321 284//284
f 282//282 322//322 283//283
f 211//211 302//302 282//282
f 288//288 308//308 310//310
f 310//310 309//309 312//312
f 290//290 310//310 313//313
f 312//312 311//311 315//315
f 313//313 312//312 316//316
f 293//293 313//313 317//317
f 315//315 314//314 319//319
f 316//316 315//315 320//320
f 317//317 316//316 321//321
f 297//297 317//317 322//322
f 319//319 318//318 286//286
f 320//320 319//319 285//285
f 321//321 320//320 284//284
f 322//322 321//321 283//283
f 302//302 322//322 282//282
f 308//308 287//287 323//323
f 325//325 323//323 324//324
f 309//309 308//308 325//325
f 327//327 324//324 326//326
f 328//328 325//325 327//327
f 311//311 309//309 328//328
f 330//330 326//326 329//329
f 331//331 327//327 330//330
f 332//332 328//328 331//331
f 314//314 311//311 332//332
f 334//334 329//329 333//333
f 335//335 330//330 334//334
f 336//336 331//331 335//335
f 337//337 332//332 336//336
f 318//318 314//314 337//337
f 271//271 333//333 169//169
f 270//270 334//334 271//271
f 269//269 335//335 270//270
f 268//268 336//336 269//269
f 267//267 337//337 268//268
f 190//190 318//318 267//267
f 308//308 323//323 325//325
f 325//325 324//324 327//327
f 309//309 325//325 328//328
f 327//327 326//326 330//330
f 328//328 327//327 331//331
f 311//311 328//328 332//332
f 330//330 329//329 334//334
f 331//331 330//330 335//335
f 332//332 331//331 336//336
f 314//314 332//332 337//337
f 334//334 333//333 271//271
f 335//335 334//334 270//270
f 336//336 335//335 269//269
f 337//337 336//336 268//268
f 318//318 337//337 267//267
f 323//323 287//287 338//338
f 340//340 338//338 339//339
f 324//324 323//323 340//340
f 342//342 339//339 341//341
f 343//343 340//340 342//342
f 326//326 324//324 343//343
f 345//345 341//341 344//344
f 346//346 342//342 345//345
f 347//347 343//343 346//346
f 329//329 326//326 347//347
f 349//349 344//344 348//348
f 350//350 345//345 349//349
f 351//351 346//346 350//350
f 352//352 347//347 351//351
f 333//333 329//329 352//352
f 256//256 348//348 148//148
f 255//255 349//349 256//256
f 254//254 350//350 255//255
f 253//253 351//351 254//254
f 252//252 352//352 253//253
f 169//169 333//333 252//252
f 323//323 338//338 340//340
f 340//340 339//339 342//342
f 324//324 340//340 343//343
f 342//342 341//341 345//345
f 343//343 342//342 346//346
f 326//326 343//343 347//347
f 345//345 344//344 349//349
f 346//346 345//345 350//350
f 347//347 346//346 351//351
f 329//329 347//347 352//352
f 349//349 348//348 256//256
f 350//350 349//349 255//255
f 351//351 350//350 254//254
f 352//352 351//351 253//253
f 333//333 352//352 252//252
f 338//338 287//287 289//289
f 353//353 289//289 292//292
f 339//339 338//338 353//353
f 354//354 292//292 296//296
f 355//355 353//353 354//354
f 341//341 339//339 355//355
f 356//356 296//296 301//301
f 357//357 354//354 356//356
f 358//358 355//355 357//357
f 344//344 341//341 358//358
f 359//359 301//301 307//307
f 360//360 356//356 359//359
f 361//361 357//357 360//360
f 362//362 358//358 361//361
f 348//348 344//344 362//362
f 241//241 307//307 127//127
f 240//240 359//359 241//241
f 239//239 360//360 240//240
f 238//238 361//361 239//239
f 237//237 362//362 238//238
f 148//148 348//348 237//237
f 338//338 289//289 353//353
f 353//353 292//292 354//354
f 339//339 353//353 355//355
f 354//354 296//296 356//356
f 355//355 354//354 357//357
f 341//341 355//355 358//358
f 356//356 301//301 359//359
f 357//357 356//356 360//360
f 358//358 357//357 361//361
f 344//344 358//358 362//362
f 359//359 307//307 241//241
f 360//360 359//359 240//240
f 361//361 360//360 239//239
f 362//362 361//361 238//238
f 348//348 362//362 237//237
