v -0.883842 -0.782517 0.440607
v -0.790873 -0.773925 0.347480
v -0.876655 -0.781939 0.404976
v -0.856460 -0.780103 0.374769
v -0.826336 -0.777289 0.354580
v -0.781763 -0.884484 0.440715
v -0.773276 -0.791438 0.347571
v -0.781212 -0.877273 0.405084
v -0.779402 -0.857059 0.374873
v -0.776614 -0.826917 0.354678
v -0.875517 -0.821131 0.440631
v -0.788520 -0.785587 0.347513
v -0.868602 -0.818380 0.405002
v -0.849637 -0.810659 0.374797
v -0.821515 -0.799144 0.354611
v -0.853282 -0.853983 0.440654
v -0.787079 -0.787704 0.347541
v -0.848111 -0.848789 0.405028
v -0.833712 -0.834369 0.374824
v -0.812279 -0.812919 0.354639
v -0.820402 -0.876188 0.440683
v -0.784943 -0.789118 0.347562
v -0.817676 -0.869250 0.405056
v -0.809977 -0.850266 0.374850
v -0.798481 -0.822128 0.354663
v -0.782485 0.884490 0.440015
v -0.773894 0.791409 0.346933
v -0.781908 0.877276 0.404394
v -0.780072 0.857054 0.374196
v -0.777258 0.826901 0.354018
v -0.884490 0.782485 0.440015
v -0.791409 0.773894 0.346933
v -0.877276 0.781908 0.404394
v -0.857054 0.780072 0.374196
v -0.826901 0.777258 0.354018
v -0.821113 0.876191 0.440012
v -0.785558 0.789088 0.346933
v -0.818361 0.869250 0.404392
v -0.810638 0.850259 0.374195
v -0.799119 0.822110 0.354018
v -0.853977 0.853977 0.440008
v -0.787674 0.787674 0.346933
v -0.848781 0.848781 0.404390
v -0.834356 0.834356 0.374194
v -0.812898 0.812898 0.354018
v -0.876191 0.821113 0.440010
v -0.789088 0.785558 0.346933
v -0.869250 0.818361 0.404391
v -0.850259 0.810638 0.374195
v -0.822110 0.799119 0.354018
v 0.884484 0.781763 0.440715
v 0.791438 0.773276 0.347571
v 0.877273 0.781211 0.405084
v 0.857059 0.779402 0.374873
v 0.826917 0.776614 0.354678
v 0.782517 0.883842 0.440607
v 0.773925 0.790873 0.347480
v 0.781939 0.876655 0.404976
v 0.780103 0.856460 0.374769
v 0.777289 0.826336 0.354580
v 0.876188 0.820402 0.440685
v 0.789118 0.784943 0.347562
v 0.869250 0.817676 0.405057
v 0.850266 0.809977 0.374851
v 0.822128 0.798481 0.354663
v 0.853983 0.853282 0.440654
v 0.787704 0.787079 0.347541
v 0.848789 0.848111 0.405028
v 0.834369 0.833712 0.374824
v 0.812919 0.812279 0.354639
v 0.821131 0.875517 0.440629
v 0.785587 0.788520 0.347513
v 0.818380 0.868602 0.405001
v 0.810659 0.849637 0.374797
v 0.799144 0.821515 0.354611
v 0.782583 -0.884473 0.441829
v 0.773996 -0.791492 0.348748
v 0.782005 -0.877267 0.406223
v 0.780171 -0.857067 0.376034
v 0.777358 -0.826947 0.355852
v 0.884473 -0.782583 0.441829
v 0.791492 -0.773996 0.348748
v 0.877267 -0.782006 0.406223
v 0.857067 -0.780171 0.376034
v 0.826947 -0.777358 0.355852
v 0.821167 -0.876183 0.441827
v 0.785648 -0.789174 0.348749
v 0.818418 -0.869250 0.406222
v 0.810702 -0.850280 0.376034
v 0.799195 -0.822161 0.355853
v 0.853994 -0.853994 0.441823
v 0.787762 -0.787762 0.348749
v 0.848804 -0.848804 0.406220
v 0.834394 -0.834394 0.376032
v 0.812959 -0.812959 0.355852
v 0.876183 -0.821167 0.441825
v 0.789174 -0.785648 0.348749
v 0.869250 -0.818418 0.406221
v 0.850280 -0.810702 0.376033
v 0.822161 -0.799195 0.355852
v -1.094283 -0.973804 1.985944
v -1.036961 -0.959620 2.043178
v -1.089409 -0.972555 2.007847
v -1.076806 -0.969421 2.026415
v -1.058390 -0.964879 2.038822
v -0.957601 -1.038846 2.043178
v -0.971850 -1.096079 1.985949
v -0.962876 -1.060250 2.038822
v -0.967434 -1.078643 2.026416
v -0.970585 -1.091224 2.007850
v -1.074545 -1.012679 1.985947
v -1.026008 -0.980788 2.043178
v -1.070653 -1.010100 2.007849
v -1.060064 -1.003133 2.026416
v -1.044388 -0.992840 2.038822
v -1.046013 -1.047906 1.985950
v -1.004831 -1.006800 2.043178
v -1.042672 -1.044583 2.007850
v -1.033674 -1.035604 2.026417
v -1.020387 -1.022336 2.038822
v -1.010750 -1.076394 1.985950
v -0.978786 -1.027936 2.043178
v -1.008154 -1.072521 2.007850
v -1.001171 -1.061951 2.026417
v -0.990860 -1.046295 2.038822
v -0.973378 1.095751 1.985903
v -0.959123 1.038413 2.043178
v -0.972113 1.090878 2.007822
v -0.968961 1.078272 2.026403
v -0.964401 1.059849 2.038819
v -1.038413 0.959123 2.043178
v -1.095751 0.973378 1.985903
v -1.059849 0.964401 2.038819
v -1.078272 0.968961 2.026403
v -1.090878 0.972113 2.007822
v -0.980323 1.027510 2.043178
v -1.012305 1.076073 1.985904
v -0.992405 1.045904 2.038819
v -1.002722 1.061589 2.026403
v -1.009709 1.072181 2.007822
v -1.006386 1.006386 2.043178
v -1.047591 1.047591 1.985905
v -1.021952 1.021952 2.038819
v -1.035247 1.035247 2.026403
v -1.044250 1.044250 2.007823
v -1.027510 0.980323 2.043178
v -1.076073 1.012305 1.985904
v -1.045904 0.992405 2.038819
v -1.061589 1.002722 2.026403
v -1.072181 1.009709 2.007823
v 1.096079 0.971850 1.985948
v 1.038846 0.957601 2.043178
v 1.091224 0.970585 2.007850
v 1.078643 0.967434 2.026416
v 1.060250 0.962876 2.038822
v 0.959620 1.036961 2.043178
v 0.973804 1.094283 1.985944
v 0.964879 1.058390 2.038822
v 0.969421 1.076806 2.026415
v 0.972555 1.089409 2.007847
v 1.027936 0.978786 2.043178
v 1.076394 1.010750 1.985950
v 1.046295 0.990860 2.038822
v 1.061951 1.001171 2.026417
v 1.072521 1.008154 2.007850
v 1.006800 1.004831 2.043178
v 1.047906 1.046013 1.985950
v 1.022336 1.020387 2.038822
v 1.035604 1.033674 2.026417
v 1.044583 1.042672 2.007850
v 0.980788 1.026008 2.043178
v 1.012679 1.074545 1.985948
v 0.992840 1.044388 2.038822
v 1.003133 1.060064 2.026416
v 1.010100 1.070653 2.007849
v 0.973794 -1.096016 1.985973
v 0.959617 -1.038811 2.043178
v 0.972545 -1.091165 2.007865
v 0.969413 -1.078590 2.026423
v 0.964873 -1.060206 2.038824
v 1.038811 -0.959617 2.043178
v 1.096016 -0.973794 1.985973
v 1.060206 -0.964873 2.038824
v 1.078590 -0.969413 2.026423
v 1.091165 -0.972545 2.007865
v 0.980775 -1.027905 2.043178
v 1.012650 -1.076339 1.985975
v 0.992822 -1.046255 2.038824
v 1.003109 -1.061904 2.026424
v 1.010072 -1.072468 2.007866
v 1.006777 -1.006777 2.043178
v 1.047862 -1.047862 1.985977
v 1.022305 -1.022305 2.038824
v 1.035566 -1.035566 2.026424
v 1.044540 -1.044540 2.007867
v 1.027905 -0.980775 2.043178
v 1.076339 -1.012650 1.985976
v 1.046255 -0.992822 2.038824
v 1.061904 -1.003109 2.026424
v 1.072468 -1.010072 2.007866
v -1.024902 -0.860887 2.043178
v -0.967670 -0.847360 1.985948
v -1.003468 -0.855769 2.038822
v -0.985063 -0.851401 2.026416
v -0.972492 -0.848449 2.007849
v -0.845323 -0.969583 1.985951
v -0.858806 -1.026809 2.043178
v -0.846397 -0.974416 2.007851
v -0.849338 -0.986988 2.026417
v -0.853696 -1.005386 2.038822
v -0.995789 -0.917274 2.043178
v -0.948006 -0.886253 1.985951
v -0.977448 -0.905336 2.038822
v -0.961925 -0.895249 2.026417
v -0.951585 -0.888548 2.007851
v -0.959669 -0.961672 2.043178
v -0.919505 -0.921485 1.985954
v -0.944205 -0.946208 2.038822
v -0.931141 -0.933141 2.026418
v -0.922466 -0.924459 2.007853
v -0.915231 -0.997748 2.043178
v -0.884242 -0.949952 1.985953
v -0.903297 -0.979411 2.038822
v -0.893215 -0.963889 2.026417
v -0.886523 -0.953544 2.007852
v -0.860252 1.026297 2.043178
v -0.846697 0.969006 1.985908
v -0.855115 1.004841 2.038819
v -0.850734 0.986418 2.026404
v -0.847777 0.973833 2.007824
v -0.969006 0.846697 1.985908
v -1.026297 0.860252 2.043178
v -0.973833 0.847777 2.007824
v -0.986418 0.850734 2.026404
v -1.004841 0.855115 2.038819
v -0.885646 0.949391 1.985909
v -0.916716 0.997252 2.043178
v -0.887934 0.952978 2.007825
v -0.894644 0.963336 2.026405
v -0.904754 0.978885 2.038819
v -0.920933 0.920933 1.985910
v -0.961184 0.961184 2.043178
v -0.923902 0.923902 2.007826
v -0.932597 0.932597 2.026405
v -0.945690 0.945690 2.038819
v -0.949391 0.885646 1.985909
v -0.997252 0.916716 2.043178
v -0.952978 0.887934 2.007825
v -0.963336 0.894644 2.026405
v -0.978885 0.904754 2.038819
v 1.026809 0.858806 2.043178
v 0.969583 0.845323 1.985952
v 1.005386 0.853696 2.038822
v 0.986988 0.849338 2.026417
v 0.974416 0.846397 2.007852
v 0.847360 0.967670 1.985947
v 0.860887 1.024902 2.043178
v 0.848449 0.972492 2.007849
v 0.851401 0.985063 2.026416
v 0.855769 1.003468 2.038822
v 0.949952 0.884242 1.985953
v 0.997748 0.915231 2.043178
v 0.953544 0.886523 2.007853
v 0.963889 0.893215 2.026418
v 0.979411 0.903297 2.038822
v 0.921485 0.919505 1.985954
v 0.961672 0.959669 2.043178
v 0.924459 0.922466 2.007853
v 0.933141 0.931141 2.026418
v 0.946208 0.944205 2.038822
v 0.886253 0.948006 1.985951
v 0.917274 0.995789 2.043178
v 0.888548 0.951585 2.007851
v 0.895249 0.961925 2.026417
v 0.905336 0.977448 2.038822
v 0.860930 -1.026781 2.043178
v 0.847408 -0.969577 1.985974
v 0.855814 -1.005366 2.038824
v 0.851447 -0.986975 2.026423
v 0.848496 -0.974407 2.007865
v 0.969577 -0.847408 1.985974
v 1.026781 -0.860930 2.043178
v 0.974407 -0.848496 2.007865
v 0.986975 -0.851447 2.026423
v 1.005366 -0.855814 2.038824
v 0.886283 -0.949954 1.985976
v 0.917289 -0.997730 2.043178
v 0.888576 -0.953544 2.007867
v 0.895274 -0.963885 2.026424
v 0.905357 -0.979401 2.038824
v 0.921498 -0.921498 1.985978
v 0.961668 -0.961668 2.043178
v 0.924471 -0.924471 2.007868
v 0.933149 -0.933149 2.026425
v 0.946211 -0.946211 2.038824
v 0.949954 -0.886283 1.985976
v 0.997730 -0.917289 2.043178
v 0.953544 -0.888576 2.007866
v 0.963885 -0.895274 2.026424
v 0.979401 -0.905357 2.038824
v -0.897668 -0.999965 0.124246
v -0.897159 -0.993569 0.092639
v -0.895531 -0.975638 0.065841
v -0.893034 -0.948903 0.047927
v -0.999617 -0.898132 0.124130
v -0.948597 -0.893438 0.047822
v -0.975320 -0.895954 0.065729
v -0.993237 -0.897602 0.092524
v -0.936353 -0.991813 0.124223
v -0.916821 -0.943787 0.047910
v -0.927045 -0.968762 0.065819
v -0.933903 -0.985627 0.092617
v -0.910386 -0.910746 0.041596
v -0.969245 -0.969663 0.124194
v -0.932767 -0.933139 0.047892
v -0.951805 -0.952190 0.065798
v -0.964615 -0.965015 0.092590
v -0.991427 -0.936797 0.124165
v -0.943443 -0.917210 0.047862
v -0.968406 -0.927449 0.065768
v -0.985257 -0.934327 0.092561
v -1.000000 0.898138 0.123737
v -0.993601 0.897608 0.092144
v -0.975664 0.895959 0.065361
v -0.948922 0.893442 0.047465
v -0.898138 1.000000 0.123737
v -0.893442 0.948922 0.047465
v -0.895959 0.975664 0.065361
v -0.897608 0.993601 0.092144
v -0.991845 0.936812 0.123735
v -0.985655 0.934341 0.092143
v -0.968785 0.927461 0.065361
v -0.943803 0.917219 0.047465
v -0.969687 0.969687 0.123733
v -0.965037 0.965037 0.092142
v -0.952208 0.952208 0.065360
v -0.933153 0.933153 0.047465
v -0.936812 0.991845 0.123734
v -0.905160 0.914493 0.041181
v -0.934341 0.985655 0.092143
v -0.927461 0.968785 0.065360
v -0.917219 0.943803 0.047465
v 0.898132 0.999617 0.124130
v 0.890428 0.917114 0.041524
v 0.897602 0.993237 0.092524
v 0.895954 0.975320 0.065729
v 0.893438 0.948597 0.047822
v 0.917410 0.890044 0.041622
v 0.999965 0.897668 0.124246
v 0.948903 0.893034 0.047927
v 0.975638 0.895531 0.065841
v 0.993569 0.897159 0.092639
v 0.936797 0.991427 0.124166
v 0.934327 0.985257 0.092561
v 0.927449 0.968406 0.065768
v 0.917210 0.943443 0.047862
v 0.969663 0.969245 0.124194
v 0.910746 0.910386 0.041596
v 0.965015 0.964615 0.092590
v 0.952190 0.951805 0.065798
v 0.933139 0.932767 0.047892
v 0.991813 0.936353 0.124222
v 0.985627 0.933903 0.092616
v 0.968762 0.927045 0.065818
v 0.943787 0.916821 0.047910
v 0.999875 -0.898110 0.125570
v 0.917354 -0.890404 0.042986
v 0.993484 -0.897581 0.093979
v 0.975566 -0.895934 0.067192
v 0.948849 -0.893420 0.049286
v 0.898110 -0.999875 0.125570
v 0.893420 -0.948849 0.049286
v 0.895934 -0.975566 0.067192
v 0.897581 -0.993484 0.093979
v 0.991726 -0.936747 0.125592
v 0.985544 -0.934279 0.094002
v 0.968692 -0.927406 0.067216
v 0.943735 -0.917175 0.049308
v 0.969589 -0.969589 0.125594
v 0.910717 -0.910717 0.043005
v 0.964945 -0.964945 0.094005
v 0.952130 -0.952130 0.067220
v 0.933094 -0.933094 0.049313
v 0.936747 -0.991726 0.125591
v 0.905127 -0.914452 0.043000
v 0.934279 -0.985544 0.094001
v 0.927406 -0.968692 0.067215
v 0.917175 -0.943735 0.049308
v -0.514773 -0.610795 0.031028
v -0.513725 -0.600098 0.041715
v -0.514467 -0.607638 0.038587
v -0.610581 -0.515005 0.030933
v -0.599895 -0.513945 0.041630
v -0.607432 -0.514691 0.038495
v -0.551431 -0.603503 0.030997
v -0.547265 -0.593426 0.041686
v -0.550180 -0.600470 0.038557
v -0.582511 -0.582739 0.030968
v -0.574809 -0.575024 0.041660
v -0.580197 -0.580416 0.038529
v -0.603282 -0.551662 0.030945
v -0.593216 -0.547483 0.041641
v -0.600257 -0.550403 0.038507
v 0.610775 -0.515021 0.031863
v 0.600077 -0.513964 0.042550
v 0.607618 -0.514707 0.039422
v 0.514997 -0.610809 0.031863
v 0.513939 -0.600111 0.042549
v 0.514682 -0.607652 0.039422
v 0.603488 -0.551678 0.031887
v 0.593410 -0.547502 0.042573
v 0.600455 -0.550419 0.039446
v 0.582727 -0.582754 0.031895
v 0.575012 -0.575040 0.042580
v 0.580404 -0.580431 0.039454
v 0.551653 -0.603518 0.031887
v 0.547476 -0.593440 0.042572
v 0.550394 -0.600484 0.039445
v 0.514863 0.610570 0.030937
v 0.513803 0.599883 0.041634
v 0.514549 0.607420 0.038499
v 0.610662 0.514773 0.031033
v 0.599965 0.513724 0.041721
v 0.607505 0.514467 0.038592
v 0.551520 0.603275 0.030950
v 0.547343 0.593209 0.041645
v 0.550262 0.600249 0.038512
v 0.582599 0.582508 0.030973
v 0.574885 0.574805 0.041665
v 0.580277 0.580193 0.038534
v 0.603367 0.551430 0.031002
v 0.593290 0.547263 0.041692
v 0.600333 0.550179 0.038562
v -0.610795 0.514875 0.030741
v -0.600108 0.513829 0.041439
v -0.607646 0.514568 0.038303
v -0.515026 0.610655 0.030741
v -0.513979 0.599968 0.041439
v -0.514719 0.607506 0.038304
v -0.603511 0.551531 0.030735
v -0.593444 0.547366 0.041435
v -0.600485 0.550280 0.038298
v -0.582753 0.582605 0.030734
v -0.575049 0.574902 0.041433
v -0.580438 0.580290 0.038296
v -0.551681 0.603367 0.030736
v -0.547515 0.593300 0.041434
v -0.550430 0.600341 0.038298
v -0.610575 -0.515011 0.018735
v -0.621262 -0.516072 0.008033
v -0.613724 -0.515326 0.011171
v -0.515815 -0.621499 0.008143
v -0.514767 -0.610801 0.018830
v -0.515073 -0.613958 0.011271
v -0.613342 -0.555847 0.008058
v -0.603276 -0.551668 0.018757
v -0.606302 -0.552927 0.011194
v -0.590208 -0.590459 0.008086
v -0.582505 -0.582745 0.018782
v -0.584820 -0.585067 0.011221
v -0.555591 -0.613587 0.008114
v -0.551425 -0.603509 0.018808
v -0.552676 -0.606542 0.011247
v 0.515003 -0.610815 0.019665
v 0.516061 -0.621512 0.008984
v 0.515318 -0.613971 0.012108
v 0.621479 -0.516085 0.008979
v 0.610781 -0.515027 0.019665
v 0.613938 -0.515342 0.012107
v 0.555836 -0.613601 0.008998
v 0.551659 -0.603524 0.019680
v 0.552918 -0.606557 0.012122
v 0.590447 -0.590473 0.009004
v 0.582733 -0.582760 0.019685
v 0.585055 -0.585082 0.012128
v 0.613571 -0.555860 0.009000
v 0.603494 -0.551684 0.019680
v 0.606527 -0.552942 0.012123
v 0.610668 0.514767 0.018835
v 0.621365 0.515816 0.008143
v 0.613825 0.515074 0.011274
v 0.515928 0.621250 0.008043
v 0.514869 0.610564 0.018739
v 0.515183 0.613713 0.011177
v 0.613449 0.555592 0.008120
v 0.603373 0.551424 0.018813
v 0.606406 0.552676 0.011252
v 0.590319 0.590206 0.008091
v 0.582605 0.582502 0.018787
v 0.584927 0.584817 0.011225
v 0.555704 0.613335 0.008061
v 0.551526 0.603269 0.018761
v 0.552785 0.606295 0.011198
v -0.515020 0.610649 0.018543
v -0.516067 0.621336 0.007850
v -0.515327 0.613798 0.010983
v -0.621476 0.515914 0.007844
v -0.610789 0.514869 0.018543
v -0.613938 0.515175 0.010981
v -0.555841 0.613428 0.007833
v -0.551675 0.603361 0.018529
v -0.552926 0.606387 0.010967
v -0.590451 0.590302 0.007827
v -0.582747 0.582599 0.018524
v -0.585062 0.584914 0.010962
v -0.613572 0.555690 0.007834
v -0.603505 0.551525 0.018529
v -0.606531 0.552776 0.010967
v -0.917421 0.890432 0.041181
v -0.914493 0.905160 0.041181
v -0.910755 0.910755 0.041181
v -0.890432 0.917421 0.041181
v -0.890044 -0.917410 0.041622
v -0.904778 -0.914484 0.041612
v -0.914150 -0.905153 0.041566
v -0.917114 -0.890428 0.041524
v 0.905153 0.914150 0.041566
v 0.914484 0.904778 0.041612
v 0.914452 -0.905127 0.043000
v 0.890413 -0.917377 0.042986
v 0.886267 -0.859813 0.042947
v -0.806804 0.874442 0.030397
v -0.807875 0.885280 0.041226
v -0.807122 0.877640 0.038056
v -0.885454 0.807691 0.041221
v -0.874616 0.806621 0.030397
v -0.877814 0.806939 0.038054
v -0.836991 0.879491 0.041215
v -0.832759 0.869281 0.030386
v -0.834034 0.872354 0.038045
v -0.862576 0.862395 0.041211
v -0.854760 0.854580 0.030383
v -0.857113 0.856933 0.038041
v -0.879669 0.836807 0.041216
v -0.869459 0.832577 0.030386
v -0.872532 0.833851 0.038045
v -0.874282 -0.806726 0.030732
v -0.885120 -0.807790 0.041549
v -0.877480 -0.807038 0.038387
v -0.807514 -0.885381 0.041646
v -0.806442 -0.874554 0.030800
v -0.806760 -0.877744 0.038464
v -0.879322 -0.836906 0.041573
v -0.869113 -0.832682 0.030748
v -0.872186 -0.833951 0.038406
v -0.862220 -0.862493 0.041598
v -0.854406 -0.854687 0.030766
v -0.856758 -0.857033 0.038426
v -0.836630 -0.879589 0.041622
v -0.832398 -0.869390 0.030784
v -0.833673 -0.872456 0.038446
v 0.874391 0.806476 0.030807
v 0.885218 0.807549 0.041645
v 0.877581 0.806795 0.038468
v 0.807620 0.885146 0.041556
v 0.806557 0.874308 0.030739
v 0.806869 0.877506 0.038394
v 0.879423 0.836665 0.041627
v 0.869225 0.832432 0.030791
v 0.872290 0.833707 0.038452
v 0.862324 0.862253 0.041604
v 0.854520 0.854438 0.030773
v 0.856865 0.856791 0.038432
v 0.836736 0.879352 0.041578
v 0.832514 0.869143 0.030755
v 0.833781 0.872215 0.038412
v 0.806749 -0.874575 0.032072
v 0.807811 -0.885402 0.042914
v 0.807060 -0.877766 0.039735
v 0.885396 -0.807810 0.042910
v 0.874568 -0.806749 0.032073
v 0.877759 -0.807060 0.039734
v 0.836926 -0.879611 0.042926
v 0.832705 -0.869412 0.032083
v 0.833972 -0.872478 0.039746
v 0.862513 -0.862514 0.042931
v 0.854708 -0.854710 0.032087
v 0.857053 -0.857055 0.039750
v 0.879607 -0.836926 0.042928
v 0.869408 -0.832705 0.032083
v 0.872474 -0.833973 0.039747
v -0.874610 0.806615 0.018479
v -0.863772 0.805545 0.007650
v -0.871412 0.806298 0.010821
v -0.805727 0.863598 0.007653
v -0.806798 0.874436 0.018480
v -0.806480 0.871238 0.010822
v -0.859242 0.828340 0.007642
v -0.869453 0.832571 0.018469
v -0.866379 0.831296 0.010811
v -0.846938 0.846759 0.007639
v -0.854754 0.854574 0.018466
v -0.852401 0.852221 0.010808
v -0.828521 0.859065 0.007641
v -0.832753 0.869275 0.018469
v -0.831478 0.866202 0.010811
v -0.806435 -0.874560 0.018883
v -0.805363 -0.863732 0.008048
v -0.806117 -0.871369 0.011222
v -0.863438 -0.805669 0.007987
v -0.874276 -0.806732 0.018815
v -0.871078 -0.806421 0.011157
v -0.828161 -0.859197 0.008034
v -0.832393 -0.869396 0.018867
v -0.831118 -0.866331 0.011207
v -0.846586 -0.846888 0.008018
v -0.854400 -0.854693 0.018849
v -0.852047 -0.852348 0.011190
v -0.858899 -0.828466 0.008003
v -0.869107 -0.832689 0.018831
v -0.866035 -0.831421 0.011172
v 0.806563 0.874302 0.018822
v 0.805501 0.863464 0.007997
v 0.806252 0.871104 0.011165
v 0.863570 0.805396 0.008052
v 0.874397 0.806469 0.018890
v 0.871206 0.806151 0.011228
v 0.828298 0.858927 0.008010
v 0.832520 0.869137 0.018837
v 0.831252 0.866064 0.011179
v 0.846721 0.846616 0.008025
v 0.854526 0.854432 0.018856
v 0.852181 0.852079 0.011197
v 0.859033 0.828193 0.008041
v 0.869231 0.832426 0.018874
v 0.866166 0.831151 0.011214
v 0.874574 -0.806755 0.020156
v 0.863747 -0.805695 0.009314
v 0.871383 -0.806445 0.012493
v 0.805694 -0.863753 0.009317
v 0.806755 -0.874581 0.020155
v 0.806445 -0.871390 0.012494
v 0.859215 -0.828491 0.009324
v 0.869414 -0.832711 0.020166
v 0.866349 -0.831444 0.012503
v 0.846909 -0.846911 0.009327
v 0.854713 -0.854716 0.020169
v 0.852368 -0.852370 0.012507
v 0.828489 -0.859219 0.009323
v 0.832711 -0.869418 0.020166
v 0.831443 -0.866353 0.012503
v -0.810108 0.773810 0.007680
v -0.662706 0.610220 0.007796
v -0.669935 0.573840 0.007806
v -0.815313 0.747619 0.007689
v -0.669697 -0.573991 0.008024
v -0.815003 -0.747749 0.007996
v -0.747795 0.815145 0.007693
v -0.573999 0.669789 0.007811
v -0.610377 0.662555 0.007795
v -0.773985 0.809938 0.007680
v 0.747586 0.815021 0.008006
v 0.573843 0.669693 0.008034
v -0.795641 0.795468 0.007676
v -0.641748 0.641594 0.007790
v -0.573724 -0.669945 0.008124
v -0.747454 -0.815286 0.008067
v -0.773647 -0.810075 0.008050
v -0.610105 -0.662709 0.008098
v 0.573988 -0.669960 0.009050
v 0.747767 -0.815305 0.009251
v -0.662453 -0.610371 0.008047
v -0.809787 -0.773942 0.008014
v -0.795310 -0.795602 0.008032
v -0.641483 -0.641745 0.008073
v 0.773779 0.809809 0.008020
v 0.610223 0.662454 0.008051
v 0.662566 0.610112 0.008104
v 0.809916 0.773673 0.008057
v 0.815129 0.747480 0.008070
v 0.669806 0.573732 0.008124
v 0.815293 -0.747773 0.009247
v 0.669932 -0.574007 0.009046
v 0.795441 0.795334 0.008038
v 0.641599 0.641488 0.008078
v 0.810086 -0.773965 0.009259
v 0.662700 -0.610386 0.009065
v 0.610367 -0.662724 0.009063
v 0.773959 -0.810096 0.009258
v 0.795616 -0.795624 0.009262
v 0.641739 -0.641761 0.009069
v -0.953305 -1.072050 1.520523
v -0.934759 -1.048022 1.055097
v -0.916214 -1.023994 0.589672
v 0.917031 -1.023910 0.590671
v 0.935952 -1.047946 1.055772
v 0.954873 -1.071981 1.520872
v -0.992151 -1.055249 1.520518
v -0.973551 -1.034104 1.055086
v -0.954952 -1.012959 0.589655
v -1.012206 -0.955768 0.589610
v -1.032986 -0.974738 1.055056
v -1.053765 -0.993709 1.520502
v -1.070616 -0.954886 1.520491
v -1.046950 -0.935968 1.055037
v -1.023283 -0.917050 0.589584
v -1.071813 0.954568 1.520362
v -1.047875 0.935758 1.054820
v -1.023938 0.916948 0.589279
v -1.026821 -1.028345 1.520511
v -1.007629 -1.008785 1.055072
v -0.988437 -0.989224 0.589633
v -1.055016 0.993432 1.520362
v -1.033959 0.974558 1.054820
v -1.012902 0.955685 0.589278
v -0.954568 1.071813 1.520362
v -0.935758 1.047875 1.054820
v -0.916948 1.023938 0.589279
v -0.955685 1.012902 0.589277
v -0.974558 1.033959 1.054819
v -0.993432 1.055016 1.520362
v 0.954886 1.070616 1.520491
v 0.935968 1.046950 1.055037
v 0.917050 1.023283 0.589584
v -1.028115 1.028115 1.520362
v -1.008639 1.008639 1.054819
v -0.989163 0.989163 0.589276
v 0.993709 1.053765 1.520502
v 0.974738 1.032986 1.055057
v 0.955768 1.012206 0.589611
v 1.072050 0.953305 1.520523
v 1.048022 0.934759 1.055097
v 1.023994 0.916214 0.589672
v 1.012959 0.954952 0.589654
v 1.034104 0.973551 1.055086
v 1.055249 0.992151 1.520518
v 1.071981 -0.954873 1.520873
v 1.047946 -0.935952 1.055772
v 1.023910 -0.917031 0.590671
v 1.028345 1.026821 1.520511
v 1.008785 1.007629 1.055072
v 0.989224 0.988437 0.589633
v 1.055186 -0.993674 1.520880
v 1.034032 -0.974698 1.055784
v 1.012879 -0.955723 0.590688
v 0.955723 -1.012879 0.590687
v 0.974698 -1.034032 1.055783
v 0.993674 -1.055186 1.520879
v 1.028294 -1.028294 1.520881
v 1.008726 -1.008726 1.055785
v 0.989157 -0.989157 0.590690
v -0.257954 0.791230 0.347115
v 0.257985 0.791051 0.347297
v 0.259107 0.826524 0.354393
v -0.259076 0.826713 0.354205
v 0.260045 0.856658 0.374578
v -0.260014 0.856856 0.374387
v 0.260657 0.876862 0.404782
v -0.260626 0.877069 0.404588
v 0.260850 0.884058 0.440409
v -0.260818 0.884274 0.440212
v -0.319542 1.037929 2.043178
v 0.320039 1.037445 2.043178
v 0.321786 1.058876 2.038821
v -0.321308 1.059363 2.038820
v 0.323294 1.077295 2.026411
v -0.322834 1.077783 2.026407
v 0.324332 1.089899 2.007839
v -0.323890 1.090388 2.007830
v 0.324744 1.094772 1.985930
v -0.324317 1.095262 1.985917
v -0.282011 0.968561 1.985921
v 0.282674 0.968116 1.985934
v 0.283040 0.972939 2.007841
v -0.282368 0.973386 2.007833
v 0.284023 0.985514 2.026412
v -0.283355 0.985966 2.026408
v 0.285474 1.003926 2.038821
v -0.284820 1.004384 2.038820
v 0.287174 1.025367 2.043178
v -0.286539 1.025832 2.043178
v -0.299381 0.999872 0.123868
v 0.299375 0.999745 0.123999
v 0.299199 0.993358 0.092398
v -0.299204 0.993479 0.092271
v 0.298650 0.975435 0.065607
v -0.298655 0.975550 0.065484
v 0.297811 0.948705 0.047703
v -0.297816 0.948813 0.047584
v -0.171730 0.610627 0.030807
v 0.171567 0.610598 0.030872
v 0.171460 0.607449 0.038434
v -0.171630 0.607478 0.038369
v 0.171209 0.599911 0.041569
v -0.171385 0.599940 0.041504
v -0.172069 0.621308 0.007914
v 0.171930 0.621279 0.007979
v 0.171680 0.613741 0.011112
v -0.171824 0.613770 0.011047
v 0.171573 0.610592 0.018674
v -0.171724 0.610621 0.018609
v 0.296808 0.917216 0.041410
v -0.296812 0.917318 0.041296
v 0.268770 0.874352 0.030625
v -0.269017 0.874397 0.030511
v -0.269125 0.877595 0.038169
v 0.268872 0.877550 0.038281
v -0.269377 0.885235 0.041336
v 0.269121 0.885190 0.041446
v 0.268425 0.863508 0.007882
v -0.268651 0.863553 0.007768
v -0.268903 0.871193 0.010936
v 0.268674 0.871148 0.011050
v -0.269011 0.874391 0.018594
v 0.268776 0.874346 0.018708
v -0.191385 0.669757 0.007885
v 0.191229 0.669725 0.007959
v -0.249334 0.815104 0.007797
v 0.249126 0.815062 0.007902
v 0.318402 1.071015 1.520448
v -0.318083 1.071414 1.520405
v 0.312059 1.047258 1.054965
v -0.311849 1.047567 1.054892
v 0.305717 1.023502 0.589482
v -0.305615 1.023720 0.589380
v 0.791456 0.257518 0.347963
v 0.791474 -0.258239 0.348356
v 0.826937 -0.259368 0.355461
v 0.826927 0.258623 0.355070
v 0.857064 -0.260313 0.375647
v 0.857061 0.259544 0.375260
v 0.877269 -0.260933 0.405844
v 0.877271 0.260139 0.405464
v 0.884477 -0.261135 0.441457
v 0.884480 0.260314 0.441086
v 1.038834 0.318529 2.043178
v 1.038823 -0.320544 2.043178
v 1.060221 -0.322290 2.038823
v 1.060235 0.320293 2.038823
v 1.078608 -0.323797 2.026421
v 1.078625 0.321819 2.026419
v 1.091185 -0.324835 2.007860
v 1.091205 0.322875 2.007855
v 1.096037 -0.325245 1.985965
v 1.096058 0.323303 1.985957
v 0.969581 0.281079 1.985959
v 0.969579 -0.283165 1.985966
v 0.974410 -0.283532 2.007860
v 0.974413 0.281433 2.007856
v 0.986979 -0.284519 2.026421
v 0.986984 0.282409 2.026419
v 1.005373 -0.285977 2.038823
v 1.005379 0.283860 2.038823
v 1.026790 -0.287684 2.043178
v 1.026799 0.285561 2.043178
v 0.999935 0.299075 0.124688
v 0.999905 -0.299517 0.125129
v 0.993512 -0.299334 0.093532
v 0.993541 0.298912 0.093086
v 0.975590 -0.298779 0.066742
v 0.975614 0.298376 0.066291
v 0.948867 -0.297935 0.048833
v 0.948885 0.297550 0.048380
v 0.917372 -0.296921 0.042531
v 0.917391 0.296562 0.042077
v 0.610700 0.171508 0.031310
v 0.610737 -0.171757 0.031587
v 0.607581 -0.171649 0.039146
v 0.607543 0.171409 0.038869
v 0.600040 -0.171401 0.042274
v 0.600002 0.171161 0.041997
v 0.621403 0.171849 0.008421
v 0.621441 -0.172118 0.008700
v 0.613900 -0.171870 0.011829
v 0.613862 0.171602 0.011552
v 0.610743 -0.171763 0.019389
v 0.610706 0.171502 0.019112
v 0.874509 -0.269008 0.031651
v 0.874450 0.268734 0.031229
v 0.877641 0.268843 0.038890
v 0.877700 -0.269108 0.039312
v 0.885277 0.269096 0.042067
v 0.885337 -0.269357 0.042488
v 0.863688 -0.268665 0.008893
v 0.863629 0.268366 0.008473
v 0.871265 0.268619 0.011650
v 0.871324 -0.268913 0.012072
v 0.874456 0.268728 0.019312
v 0.874515 -0.269014 0.019734
v 0.669848 0.191152 0.008432
v 0.669890 -0.191427 0.008739
v 0.815184 0.249062 0.008462
v 0.815238 -0.249355 0.008855
v 1.072004 -0.318813 1.520756
v 1.072027 0.317246 1.520639
v 1.047971 -0.312381 1.055547
v 1.047997 0.311189 1.055322
v 1.023938 -0.305949 0.590338
v 1.023966 0.305132 0.590005
v 0.258239 -0.791474 0.348356
v -0.257518 -0.791456 0.347963
v -0.258623 -0.826927 0.355070
v 0.259368 -0.826937 0.355461
v -0.259544 -0.857061 0.375260
v 0.260313 -0.857064 0.375647
v -0.260139 -0.877271 0.405464
v 0.260933 -0.877269 0.405844
v -0.260314 -0.884480 0.441086
v 0.261135 -0.884477 0.441457
v 0.320544 -1.038823 2.043178
v -0.318529 -1.038834 2.043178
v -0.320293 -1.060235 2.038823
v 0.322290 -1.060221 2.038823
v -0.321819 -1.078625 2.026419
v 0.323797 -1.078608 2.026421
v -0.322875 -1.091205 2.007855
v 0.324835 -1.091185 2.007860
v -0.323302 -1.096058 1.985957
v 0.325246 -1.096037 1.985965
v 0.283165 -0.969579 1.985966
v -0.281079 -0.969581 1.985959
v -0.281432 -0.974413 2.007856
v 0.283532 -0.974410 2.007861
v -0.282409 -0.986984 2.026419
v 0.284519 -0.986979 2.026422
v -0.283860 -1.005379 2.038823
v 0.285977 -1.005373 2.038823
v -0.285561 -1.026799 2.043178
v 0.287684 -1.026790 2.043178
v 0.299517 -0.999905 0.125129
v -0.299076 -0.999935 0.124688
v -0.298912 -0.993541 0.093086
v 0.299334 -0.993512 0.093532
v -0.298376 -0.975614 0.066291
v 0.298779 -0.975590 0.066741
v -0.297549 -0.948885 0.048380
v 0.297935 -0.948867 0.048833
v -0.171170 -0.600102 0.041993
v 0.171384 -0.600107 0.042271
v 0.171632 -0.607647 0.039144
v -0.171417 -0.607643 0.038866
v 0.171740 -0.610804 0.031585
v -0.171516 -0.610800 0.031306
v 0.172103 -0.621508 0.008704
v -0.171856 -0.621503 0.008423
v -0.171610 -0.613962 0.011550
v 0.171854 -0.613967 0.011829
v -0.171510 -0.610806 0.019109
v 0.171746 -0.610810 0.019387
v -0.296559 -0.917399 0.042077
v 0.296927 -0.917388 0.042531
v -0.268711 -0.874561 0.031224
v 0.269019 -0.874568 0.031648
v 0.269120 -0.877758 0.039311
v -0.268820 -0.877751 0.038887
v 0.269369 -0.885395 0.042491
v -0.269072 -0.885388 0.042069
v -0.268344 -0.863739 0.008471
v 0.268675 -0.863746 0.008894
v 0.268924 -0.871383 0.012070
v -0.268596 -0.871376 0.011646
v 0.269025 -0.874574 0.019731
v -0.268705 -0.874567 0.019307
v 0.191417 -0.669955 0.008742
v -0.191154 -0.669950 0.008433
v 0.249360 -0.815299 0.008856
v -0.249047 -0.815292 0.008461
v -0.317246 -1.072027 1.520640
v 0.318814 -1.072004 1.520756
v -0.311189 -1.047997 1.055322
v 0.312381 -1.047971 1.055547
v -0.305132 -1.023966 0.590005
v 0.305949 -1.023938 0.590338
v -0.791051 -0.257985 0.347297
v -0.791230 0.257954 0.347115
v -0.826713 0.259076 0.354205
v -0.826524 -0.259107 0.354393
v -0.856856 0.260014 0.374387
v -0.856658 -0.260045 0.374578
v -0.877069 0.260626 0.404588
v -0.876862 -0.260657 0.404782
v -0.884274 0.260818 0.440212
v -0.884058 -0.260850 0.440409
v -1.037445 -0.320039 2.043178
v -1.037929 0.319542 2.043178
v -1.059363 0.321308 2.038820
v -1.058876 -0.321786 2.038821
v -1.077783 0.322834 2.026407
v -1.077295 -0.323293 2.026411
v -1.090388 0.323890 2.007830
v -1.089899 -0.324333 2.007839
v -1.095262 0.324317 1.985917
v -1.094772 -0.324744 1.985930
v -0.968116 -0.282674 1.985934
v -0.968561 0.282011 1.985921
v -0.973386 0.282368 2.007833
v -0.972939 -0.283040 2.007841
v -0.985966 0.283355 2.026408
v -0.985514 -0.284023 2.026412
v -1.004383 0.284820 2.038820
v -1.003926 -0.285474 2.038821
v -1.025832 0.286539 2.043178
v -1.025367 -0.287174 2.043178
v -0.917319 0.296812 0.041296
v -0.917216 -0.296808 0.041410
v -0.999745 -0.299375 0.123999
v -0.999872 0.299381 0.123868
v -0.993479 0.299204 0.092271
v -0.993358 -0.299199 0.092398
v -0.975550 0.298655 0.065484
v -0.975435 -0.298650 0.065607
v -0.948813 0.297815 0.047584
v -0.948705 -0.297811 0.047703
v -0.610652 -0.171712 0.030869
v -0.610724 0.171581 0.030805
v -0.607574 0.171482 0.038367
v -0.607503 -0.171605 0.038431
v -0.600037 0.171238 0.041503
v -0.599966 -0.171353 0.041566
v -0.621333 -0.172076 0.007970
v -0.621405 0.171919 0.007907
v -0.613867 0.171675 0.011044
v -0.613795 -0.171826 0.011108
v -0.610718 0.171575 0.018607
v -0.610646 -0.171718 0.018671
v -0.874505 0.268839 0.030508
v -0.874393 -0.268944 0.030620
v -0.877591 -0.269046 0.038276
v -0.877703 0.268946 0.038165
v -0.885231 -0.269296 0.041440
v -0.885343 0.269198 0.041330
v -0.863661 0.268474 0.007762
v -0.863549 -0.268597 0.007875
v -0.871189 -0.268848 0.011045
v -0.871301 0.268725 0.010933
v -0.874387 -0.268950 0.018703
v -0.874499 0.268833 0.018591
v -0.669776 -0.191381 0.007951
v -0.669856 0.191230 0.007878
v -0.815106 -0.249293 0.007894
v -0.815209 0.249163 0.007791
v -1.071414 0.318083 1.520405
v -1.071015 -0.318402 1.520448
v -1.047567 0.311849 1.054892
v -1.047258 -0.312060 1.054965
v -1.023720 0.305615 0.589380
v -1.023502 -0.305717 0.589482
vn 0.982025 0.137272 0.129307
vn 0.103519 0.011933 0.994537
vn 0.918973 0.100131 0.381329
vn 0.708335 0.078402 0.701468
vn 0.391644 0.043764 0.919065
vn 0.136479 0.982086 0.129856
vn 0.010285 0.104282 0.994476
vn 0.099033 0.918973 0.381664
vn 0.076937 0.708426 0.701529
vn 0.041932 0.391949 0.919004
vn 0.893002 0.430342 0.131504
vn 0.100436 0.044588 0.993927
vn 0.849788 0.364299 0.380871
vn 0.656880 0.282785 0.698935
vn 0.367443 0.159337 0.916257
vn 0.700552 0.701376 0.131352
vn 0.076418 0.079318 0.993896
vn 0.653432 0.654500 0.380291
vn 0.505661 0.507279 0.697806
vn 0.282907 0.285836 0.915525
vn 0.429304 0.893460 0.131840
vn 0.041719 0.101871 0.993896
vn 0.362926 0.850276 0.381115
vn 0.280831 0.657643 0.698996
vn 0.156316 0.368877 0.916227
vn 0.136235 -0.982116 0.129765
vn 0.010529 -0.103366 0.994568
vn 0.099094 -0.918851 0.381909
vn 0.077151 -0.708090 0.701865
vn 0.042299 -0.391400 0.919218
vn 0.982116 -0.136235 0.129734
vn 0.103366 -0.010529 0.994568
vn 0.918851 -0.099094 0.381909
vn 0.708090 -0.077151 0.701865
vn 0.391400 -0.042299 0.919218
vn 0.429456 -0.893368 0.131932
vn 0.042451 -0.100742 0.993988
vn 0.363323 -0.849940 0.381512
vn 0.281381 -0.656972 0.699393
vn 0.157201 -0.367870 0.916471
vn 0.700919 -0.700949 0.131657
vn 0.077486 -0.077486 0.993957
vn 0.653798 -0.653798 0.380840
vn 0.506180 -0.506180 0.698233
vn 0.284005 -0.284036 0.915769
vn 0.893368 -0.429456 0.131932
vn 0.100742 -0.042451 0.993988
vn 0.849940 -0.363323 0.381542
vn 0.656972 -0.281381 0.699393
vn 0.367870 -0.157201 0.916471
vn -0.982086 -0.136479 0.129856
vn -0.104282 -0.010285 0.994476
vn -0.918973 -0.099033 0.381664
vn -0.708426 -0.076937 0.701529
vn -0.391949 -0.041932 0.919004
vn -0.137272 -0.982025 0.129307
vn -0.011933 -0.103519 0.994537
vn -0.100131 -0.918973 0.381329
vn -0.078402 -0.708335 0.701468
vn -0.043764 -0.391644 0.919065
vn -0.893460 -0.429304 0.131809
vn -0.101901 -0.041719 0.993896
vn -0.850276 -0.362926 0.381115
vn -0.657643 -0.280831 0.698996
vn -0.368877 -0.156316 0.916227
vn -0.701376 -0.700552 0.131352
vn -0.079318 -0.076418 0.993896
vn -0.654500 -0.653401 0.380291
vn -0.507279 -0.505661 0.697806
vn -0.285836 -0.282907 0.915525
vn -0.430342 -0.893002 0.131504
vn -0.044588 -0.100436 0.993927
vn -0.364299 -0.849788 0.380902
vn -0.282785 -0.656880 0.698935
vn -0.159337 -0.367443 0.916288
vn -0.136662 0.982025 0.129978
vn -0.011444 0.104251 0.994476
vn -0.099521 0.918912 0.381664
vn -0.077731 0.708365 0.701529
vn -0.042970 0.391888 0.918973
vn -0.982025 0.136662 0.129978
vn -0.104251 0.011444 0.994476
vn -0.918912 0.099521 0.381664
vn -0.708365 0.077700 0.701529
vn -0.391888 0.042940 0.918973
vn -0.429640 0.893246 0.132176
vn -0.043123 0.101596 0.993866
vn -0.363384 0.850002 0.381298
vn -0.281503 0.657277 0.699057
vn -0.157445 0.368389 0.916227
vn -0.700919 0.700919 0.131870
vn -0.078280 0.078280 0.993835
vn -0.653859 0.653859 0.380627
vn -0.506394 0.506424 0.697897
vn -0.284433 0.284433 0.915494
vn -0.893246 0.429640 0.132176
vn -0.101596 0.043123 0.993866
vn -0.850002 0.363384 0.381298
vn -0.657277 0.281503 0.699057
vn -0.368389 0.157445 0.916227
vn -0.970672 -0.226386 0.080752
vn -0.108402 -0.025819 0.993744
vn -0.894253 -0.212073 0.394055
vn -0.691000 -0.162603 0.704306
vn -0.389813 -0.091708 0.916288
vn -0.025666 -0.108524 0.993744
vn -0.225379 -0.970946 0.080203
vn -0.091250 -0.390179 0.916196
vn -0.161870 -0.691549 0.703940
vn -0.211158 -0.894711 0.393536
vn -0.842097 -0.533921 0.075930
vn -0.087558 -0.056856 0.994507
vn -0.773278 -0.499161 0.390942
vn -0.595599 -0.383587 0.705741
vn -0.329569 -0.212653 0.919858
vn -0.704672 -0.705527 0.074953
vn -0.073458 -0.073580 0.994568
vn -0.650746 -0.651570 0.389813
vn -0.500198 -0.500839 0.706320
vn -0.276131 -0.276528 0.920469
vn -0.532853 -0.842799 0.075686
vn -0.056734 -0.087680 0.994507
vn -0.498184 -0.774010 0.390698
vn -0.382824 -0.596240 0.705588
vn -0.212195 -0.329997 0.919797
vn -0.224891 0.971038 0.080569
vn -0.025575 0.108463 0.993744
vn -0.210608 0.894620 0.394024
vn -0.161382 0.691336 0.704245
vn -0.090915 0.390027 0.916288
vn -0.108463 0.025575 0.993744
vn -0.971038 0.224891 0.080569
vn -0.390027 0.090915 0.916288
vn -0.691336 0.161382 0.704245
vn -0.894620 0.210608 0.394024
vn -0.056642 0.087649 0.994537
vn -0.532548 0.842982 0.075838
vn -0.211921 0.329905 0.919889
vn -0.382427 0.596210 0.705863
vn -0.497757 0.774071 0.391125
vn -0.073519 0.073519 0.994568
vn -0.705100 0.705100 0.075014
vn -0.276254 0.276254 0.920499
vn -0.500412 0.500412 0.706504
vn -0.651051 0.651082 0.390088
vn -0.087649 0.056642 0.994537
vn -0.842982 0.532548 0.075838
vn -0.329905 0.211921 0.919889
vn -0.596210 0.382427 0.705863
vn -0.774071 0.497757 0.391125
vn 0.970946 0.225379 0.080203
vn 0.108524 0.025666 0.993744
vn 0.894711 0.211158 0.393536
vn 0.691549 0.161870 0.703940
vn 0.390179 0.091250 0.916196
vn 0.025819 0.108402 0.993744
vn 0.226386 0.970672 0.080752
vn 0.091708 0.389813 0.916288
vn 0.162603 0.691000 0.704306
vn 0.212073 0.894253 0.394055
vn 0.087680 0.056734 0.994507
vn 0.842799 0.532853 0.075686
vn 0.329997 0.212195 0.919797
vn 0.596240 0.382824 0.705588
vn 0.774010 0.498184 0.390698
vn 0.073580 0.073458 0.994568
vn 0.705527 0.704672 0.074953
vn 0.276528 0.276131 0.920469
vn 0.500839 0.500198 0.706320
vn 0.651570 0.650746 0.389813
vn 0.056856 0.087558 0.994507
vn 0.533921 0.842097 0.075930
vn 0.212653 0.329569 0.919858
vn 0.383587 0.595599 0.705741
vn 0.499161 0.773278 0.390942
vn 0.225562 -0.970916 0.079989
vn 0.025697 -0.108524 0.993744
vn 0.211371 -0.894742 0.393353
vn 0.162053 -0.691580 0.703848
vn 0.091372 -0.390240 0.916135
vn 0.108524 -0.025697 0.993744
vn 0.970916 -0.225562 0.079989
vn 0.390240 -0.091372 0.916135
vn 0.691580 -0.162053 0.703848
vn 0.894742 -0.211371 0.393353
vn 0.056795 -0.087710 0.994507
vn 0.533219 -0.842586 0.075228
vn 0.212470 -0.330027 0.919736
vn 0.383221 -0.596271 0.705374
vn 0.498611 -0.773949 0.390332
vn 0.073580 -0.073580 0.994568
vn 0.705130 -0.705130 0.074374
vn 0.276498 -0.276498 0.920347
vn 0.500748 -0.500748 0.706015
vn 0.651295 -0.651295 0.389294
vn 0.087710 -0.056795 0.994507
vn 0.842586 -0.533219 0.075228
vn 0.330027 -0.212439 0.919736
vn 0.596271 -0.383221 0.705374
vn 0.773949 -0.498611 0.390332
vn 0.080050 0.019471 0.996582
vn 0.969146 0.204138 0.138096
vn 0.341502 0.083956 0.936094
vn 0.662252 0.163823 0.731101
vn 0.885708 0.217017 0.410321
vn 0.203314 0.969237 0.138554
vn 0.019410 0.080111 0.996582
vn 0.216193 0.885861 0.410443
vn 0.163244 0.662496 0.731040
vn 0.083682 0.341716 0.936064
vn 0.076998 0.050539 0.995727
vn 0.852290 0.506546 0.130284
vn 0.311869 0.205481 0.927610
vn 0.586200 0.386578 0.711966
vn 0.771233 0.505417 0.386914
vn 0.064821 0.064882 0.995758
vn 0.701010 0.701743 0.126743
vn 0.263283 0.263558 0.927976
vn 0.496567 0.497085 0.711509
vn 0.652913 0.653584 0.382702
vn 0.050478 0.077059 0.995727
vn 0.505631 0.852779 0.130528
vn 0.205206 0.312143 0.927580
vn 0.385998 0.586627 0.711936
vn 0.504624 0.771722 0.386944
vn 0.019349 -0.080050 0.996582
vn 0.202765 -0.969390 0.138218
vn 0.083407 -0.341502 0.936155
vn 0.162694 -0.662374 0.731254
vn 0.215522 -0.886044 0.410413
vn 0.969390 -0.202765 0.138218
vn 0.080050 -0.019349 0.996582
vn 0.886044 -0.215522 0.410413
vn 0.662374 -0.162694 0.731254
vn 0.341502 -0.083407 0.936155
vn 0.505356 -0.852962 0.130375
vn 0.050386 -0.076998 0.995727
vn 0.504135 -0.771966 0.387097
vn 0.385449 -0.586505 0.712302
vn 0.204840 -0.311930 0.927732
vn 0.701376 -0.701376 0.126743
vn 0.064760 -0.064760 0.995788
vn 0.653157 -0.653157 0.383007
vn 0.496475 -0.496506 0.711997
vn 0.263070 -0.263070 0.928190
vn 0.852962 -0.505356 0.130375
vn 0.076998 -0.050386 0.995727
vn 0.771966 -0.504135 0.387097
vn 0.586505 -0.385449 0.712302
vn 0.311930 -0.204840 0.927732
vn -0.080111 -0.019410 0.996582
vn -0.969237 -0.203314 0.138554
vn -0.341716 -0.083682 0.936064
vn -0.662496 -0.163244 0.731040
vn -0.885861 -0.216193 0.410443
vn -0.204138 -0.969146 0.138096
vn -0.019471 -0.080050 0.996582
vn -0.217017 -0.885708 0.410321
vn -0.163823 -0.662252 0.731101
vn -0.083956 -0.341502 0.936094
vn -0.852779 -0.505631 0.130528
vn -0.077059 -0.050478 0.995727
vn -0.771722 -0.504624 0.386944
vn -0.586627 -0.385998 0.711936
vn -0.312143 -0.205206 0.927580
vn -0.701773 -0.701010 0.126743
vn -0.064882 -0.064821 0.995758
vn -0.653584 -0.652913 0.382702
vn -0.497085 -0.496567 0.711509
vn -0.263558 -0.263283 0.927976
vn -0.506546 -0.852290 0.130284
vn -0.050539 -0.076998 0.995727
vn -0.505417 -0.771233 0.386914
vn -0.386578 -0.586200 0.711966
vn -0.205481 -0.311869 0.927610
vn -0.019440 0.080081 0.996582
vn -0.203467 0.969176 0.138737
vn -0.083743 0.341655 0.936064
vn -0.163335 0.662404 0.731101
vn -0.216315 0.885769 0.410565
vn -0.969176 0.203467 0.138737
vn -0.080081 0.019440 0.996582
vn -0.885769 0.216315 0.410565
vn -0.662404 0.163335 0.731101
vn -0.341655 0.083743 0.936064
vn -0.505936 0.852535 0.130894
vn -0.050478 0.077029 0.995727
vn -0.504868 0.771447 0.387188
vn -0.386181 0.586383 0.712027
vn -0.205298 0.312021 0.927610
vn -0.701346 0.701346 0.127262
vn -0.064852 0.064852 0.995758
vn -0.653188 0.653188 0.382977
vn -0.496780 0.496780 0.711600
vn -0.263405 0.263405 0.928007
vn -0.852535 0.505936 0.130894
vn -0.077029 0.050478 0.995727
vn -0.771447 0.504868 0.387188
vn -0.586383 0.386181 0.712027
vn -0.312021 0.205298 0.927610
vn -0.110660 -0.985656 -0.127201
vn -0.097324 -0.919034 -0.381909
vn -0.075564 -0.708457 -0.701651
vn -0.041169 -0.391827 -0.919095
vn -0.985626 -0.111454 -0.126743
vn -0.391430 -0.043031 -0.919187
vn -0.708274 -0.077059 -0.701682
vn -0.919004 -0.098422 -0.381695
vn -0.396344 -0.908750 -0.130467
vn -0.155797 -0.368877 -0.916318
vn -0.279366 -0.657826 -0.699393
vn -0.360881 -0.850765 -0.381970
vn -0.076601 -0.079012 -0.993896
vn -0.700552 -0.701407 -0.131108
vn -0.283029 -0.285257 -0.915677
vn -0.505325 -0.506790 -0.698386
vn -0.653066 -0.654134 -0.381542
vn -0.908292 -0.397504 -0.130192
vn -0.367626 -0.158483 -0.916349
vn -0.657033 -0.281320 -0.699362
vn -0.850215 -0.362346 -0.381817
vn -0.985656 0.110660 -0.127201
vn -0.918912 0.097507 -0.382183
vn -0.708060 0.075930 -0.702017
vn -0.391217 0.041658 -0.919340
vn -0.110660 0.985656 -0.127201
vn -0.041658 0.391217 -0.919340
vn -0.075930 0.708060 -0.702017
vn -0.097507 0.918912 -0.382183
vn -0.908597 0.396619 -0.130711
vn -0.850429 0.361248 -0.382397
vn -0.657216 0.279794 -0.699820
vn -0.368023 0.156377 -0.916532
vn -0.700949 0.700949 -0.131504
vn -0.653432 0.653432 -0.382092
vn -0.505753 0.505753 -0.698843
vn -0.283761 0.283761 -0.915922
vn -0.396619 0.908597 -0.130711
vn -0.042329 0.100803 -0.993988
vn -0.361248 0.850429 -0.382427
vn -0.279794 0.657216 -0.699820
vn -0.156377 0.368023 -0.916532
vn 0.111454 0.985626 -0.126743
vn 0.011872 0.102512 -0.994629
vn 0.098422 0.919004 -0.381695
vn 0.077059 0.708274 -0.701682
vn 0.043031 0.391430 -0.919187
vn 0.104251 0.010132 -0.994476
vn 0.985656 0.110660 -0.127201
vn 0.391797 0.041169 -0.919095
vn 0.708457 0.075564 -0.701651
vn 0.919034 0.097324 -0.381909
vn 0.397504 0.908292 -0.130161
vn 0.362346 0.850215 -0.381817
vn 0.281320 0.657033 -0.699362
vn 0.158483 0.367626 -0.916349
vn 0.701407 0.700552 -0.131108
vn 0.078982 0.076571 -0.993927
vn 0.654134 0.653066 -0.381542
vn 0.506790 0.505325 -0.698386
vn 0.285257 0.283029 -0.915677
vn 0.908750 0.396344 -0.130467
vn 0.850765 0.360881 -0.381970
vn 0.657826 0.279366 -0.699393
vn 0.368877 0.155797 -0.916318
vn 0.985626 -0.110935 -0.127293
vn 0.104007 -0.011536 -0.994507
vn 0.918973 -0.097964 -0.381878
vn 0.708396 -0.076662 -0.701621
vn 0.391675 -0.042573 -0.919095
vn 0.110935 -0.985626 -0.127293
vn 0.042604 -0.391705 -0.919095
vn 0.076662 -0.708396 -0.701621
vn 0.097964 -0.918973 -0.381878
vn 0.908567 -0.396710 -0.130741
vn 0.850490 -0.361461 -0.382031
vn 0.657521 -0.280282 -0.699332
vn 0.368511 -0.157140 -0.916227
vn 0.700949 -0.700949 -0.131565
vn 0.078341 -0.078372 -0.993835
vn 0.653554 -0.653554 -0.381726
vn 0.506088 -0.506088 -0.698355
vn 0.284341 -0.284341 -0.915555
vn 0.396710 -0.908567 -0.130741
vn 0.043367 -0.101535 -0.993866
vn 0.361461 -0.850490 -0.382031
vn 0.280282 -0.657521 -0.699332
vn 0.157170 -0.368511 -0.916196
vn 0.096438 0.975829 -0.196051
vn 0.020997 0.205206 -0.978484
vn 0.071078 0.712790 -0.697745
vn 0.975982 0.096408 -0.195166
vn 0.206214 0.020081 -0.978271
vn 0.713492 0.070528 -0.697073
vn 0.375347 0.905515 -0.197699
vn 0.083499 0.199286 -0.976348
vn 0.277383 0.667440 -0.691031
vn 0.693075 0.693014 -0.198309
vn 0.153722 0.152776 -0.976196
vn 0.511277 0.510697 -0.691183
vn 0.905637 0.375347 -0.197180
vn 0.200262 0.082583 -0.976226
vn 0.668111 0.276833 -0.690634
vn -0.975829 0.096011 -0.196173
vn -0.205298 0.019745 -0.978484
vn -0.712851 0.069918 -0.697806
vn -0.096103 0.975829 -0.196173
vn -0.019745 0.205267 -0.978484
vn -0.069979 0.712821 -0.697806
vn -0.905576 0.375042 -0.198096
vn -0.199347 0.082369 -0.976440
vn -0.667531 0.276437 -0.691305
vn -0.692984 0.692923 -0.199011
vn -0.152745 0.152745 -0.976379
vn -0.510636 0.510575 -0.691733
vn -0.375134 0.905515 -0.198096
vn -0.082369 0.199316 -0.976440
vn -0.276498 0.667501 -0.691336
vn -0.096316 -0.976012 -0.195196
vn -0.020051 -0.206214 -0.978271
vn -0.070437 -0.713462 -0.697104
vn -0.975799 -0.096530 -0.196051
vn -0.205237 -0.021027 -0.978454
vn -0.712790 -0.071139 -0.697714
vn -0.375225 -0.905698 -0.197180
vn -0.082553 -0.200262 -0.976257
vn -0.276742 -0.668111 -0.690634
vn -0.692953 -0.693167 -0.198309
vn -0.152776 -0.153752 -0.976196
vn -0.510636 -0.511338 -0.691183
vn -0.905484 -0.375439 -0.197699
vn -0.199286 -0.083529 -0.976348
vn -0.667440 -0.277444 -0.691000
vn 0.976043 -0.096133 -0.195105
vn 0.206275 -0.020692 -0.978271
vn 0.713553 -0.070559 -0.697012
vn 0.096255 -0.976043 -0.195105
vn 0.020722 -0.206244 -0.978271
vn 0.070650 -0.713523 -0.697043
vn 0.905789 -0.375195 -0.196844
vn 0.200354 -0.083316 -0.976165
vn 0.668264 -0.277078 -0.690390
vn 0.693197 -0.693106 -0.197638
vn 0.153722 -0.153722 -0.976074
vn 0.511338 -0.511277 -0.690725
vn 0.375286 -0.905728 -0.196844
vn 0.083346 -0.200323 -0.976165
vn 0.277139 -0.668203 -0.690390
vn 0.975097 0.095920 -0.199927
vn 0.183081 0.017670 -0.982910
vn 0.689962 0.067507 -0.720634
vn 0.018647 0.181951 -0.983123
vn 0.095920 0.974883 -0.200842
vn 0.068117 0.689138 -0.721397
vn 0.157628 0.064577 -0.985351
vn 0.903897 0.374126 -0.207190
vn 0.624043 0.257790 -0.737602
vn 0.120945 0.120029 -0.985351
vn 0.691610 0.691549 -0.208350
vn 0.477493 0.476852 -0.737938
vn 0.065615 0.156590 -0.985473
vn 0.374187 0.903775 -0.207709
vn 0.258431 0.623310 -0.737999
vn -0.095645 0.974914 -0.200934
vn -0.017212 0.181799 -0.983154
vn -0.067141 0.689016 -0.721610
vn -0.181951 0.017151 -0.983154
vn -0.974914 0.095553 -0.200903
vn -0.689169 0.067049 -0.721458
vn -0.064425 0.156163 -0.985626
vn -0.374004 0.903745 -0.208136
vn -0.257576 0.623066 -0.738517
vn -0.119633 0.119663 -0.985565
vn -0.691488 0.691427 -0.209082
vn -0.476608 0.476577 -0.738701
vn -0.156255 0.064333 -0.985595
vn -0.903775 0.373913 -0.208136
vn -0.623127 0.257485 -0.738487
vn -0.974883 -0.096011 -0.200812
vn -0.182104 -0.018616 -0.983093
vn -0.689261 -0.068178 -0.721274
vn -0.017670 -0.182928 -0.982940
vn -0.095798 -0.975097 -0.199957
vn -0.067446 -0.689840 -0.720786
vn -0.156652 -0.065554 -0.985443
vn -0.903745 -0.374248 -0.207709
vn -0.623341 -0.258461 -0.737968
vn -0.119968 -0.120975 -0.985351
vn -0.691458 -0.691702 -0.208350
vn -0.476791 -0.477554 -0.737938
vn -0.064638 -0.157567 -0.985382
vn -0.374035 -0.903958 -0.207190
vn -0.257729 -0.624043 -0.737632
vn 0.095767 -0.975097 -0.199866
vn 0.018189 -0.182775 -0.982971
vn 0.067812 -0.689749 -0.720847
vn 0.182928 -0.018128 -0.982940
vn 0.975127 -0.095645 -0.199835
vn 0.689901 -0.067690 -0.720725
vn 0.065371 -0.157140 -0.985382
vn 0.374157 -0.903958 -0.206885
vn 0.258278 -0.623798 -0.737632
vn 0.120640 -0.120640 -0.985321
vn 0.691702 -0.691610 -0.207709
vn 0.477340 -0.477279 -0.737754
vn 0.157231 -0.065310 -0.985382
vn 0.904019 -0.374035 -0.206854
vn 0.623859 -0.258187 -0.737632
vn -0.103336 0.010559 -0.994568
vn -0.100803 0.042360 -0.993988
vn -0.077517 0.077517 -0.993957
vn -0.010529 0.103397 -0.994568
vn -0.010102 -0.104373 -0.994476
vn -0.041780 -0.101810 -0.993896
vn -0.099887 -0.044313 -0.993988
vn -0.102542 -0.011872 -0.994629
vn 0.044282 0.099857 -0.993988
vn 0.101749 0.041780 -0.993927
vn 0.101535 -0.043336 -0.993866
vn 0.011567 -0.104129 -0.994476
vn 0.000549 -0.000763 -0.999969
vn -0.095553 0.974914 -0.200934
vn -0.017609 0.181799 -0.983154
vn -0.067202 0.689230 -0.721366
vn -0.181738 0.017609 -0.983184
vn -0.974914 0.095431 -0.200934
vn -0.689138 0.067141 -0.721488
vn -0.064577 0.156590 -0.985534
vn -0.373882 0.903806 -0.208106
vn -0.257515 0.623310 -0.738334
vn -0.119999 0.119968 -0.985473
vn -0.691519 0.691427 -0.209052
vn -0.476791 0.476730 -0.738456
vn -0.156499 0.064608 -0.985534
vn -0.903867 0.373760 -0.208106
vn -0.623280 0.257485 -0.738365
vn -0.974883 -0.095981 -0.200873
vn -0.181158 -0.018281 -0.983276
vn -0.688925 -0.067904 -0.721610
vn -0.017182 -0.183447 -0.982849
vn -0.095584 -0.975127 -0.199896
vn -0.067019 -0.690146 -0.720511
vn -0.155248 -0.065737 -0.985656
vn -0.903714 -0.374279 -0.207770
vn -0.622974 -0.258370 -0.738334
vn -0.119480 -0.121036 -0.985412
vn -0.691397 -0.691733 -0.208380
vn -0.476608 -0.477493 -0.738090
vn -0.064364 -0.157720 -0.985382
vn -0.373882 -0.904019 -0.207190
vn -0.257454 -0.624073 -0.737693
vn 0.975097 0.095676 -0.199927
vn 0.183233 0.017212 -0.982910
vn 0.689932 0.067110 -0.720725
vn 0.018220 0.181036 -0.983276
vn 0.095859 0.974883 -0.200873
vn 0.067812 0.688894 -0.721641
vn 0.157476 0.064425 -0.985412
vn 0.903958 0.373974 -0.207221
vn 0.623920 0.257546 -0.737785
vn 0.120945 0.119419 -0.985443
vn 0.691671 0.691458 -0.208380
vn 0.477401 0.476608 -0.738151
vn 0.065676 0.155156 -0.985687
vn 0.374157 0.903775 -0.207801
vn 0.258278 0.622944 -0.738365
vn 0.095828 -0.975097 -0.199835
vn 0.018586 -0.183020 -0.982910
vn 0.067965 -0.690023 -0.720573
vn 0.182958 -0.018616 -0.982940
vn 0.975127 -0.095737 -0.199866
vn 0.689901 -0.067934 -0.720664
vn 0.065615 -0.157567 -0.985321
vn 0.374126 -0.903989 -0.206824
vn 0.258309 -0.624043 -0.737419
vn 0.121036 -0.121036 -0.985229
vn 0.691702 -0.691641 -0.207648
vn 0.477554 -0.477493 -0.737480
vn 0.157506 -0.065645 -0.985321
vn 0.904019 -0.374035 -0.206824
vn 0.624043 -0.258278 -0.737449
vn -0.975829 0.096103 -0.196142
vn -0.205390 0.020051 -0.978454
vn -0.712912 0.070284 -0.697684
vn -0.019990 0.205359 -0.978454
vn -0.096194 0.975829 -0.196142
vn -0.070345 0.712851 -0.697745
vn -0.199469 0.082553 -0.976409
vn -0.905545 0.375103 -0.198065
vn -0.667501 0.276650 -0.691275
vn -0.152898 0.152867 -0.976318
vn -0.692984 0.692892 -0.198981
vn -0.510697 0.510636 -0.691641
vn -0.082522 0.199469 -0.976409
vn -0.375195 0.905515 -0.198096
vn -0.276681 0.667440 -0.691305
vn -0.096225 -0.976012 -0.195227
vn -0.019776 -0.206061 -0.978332
vn -0.070223 -0.713462 -0.697134
vn -0.205115 -0.020875 -0.978484
vn -0.975799 -0.096622 -0.196081
vn -0.712790 -0.071078 -0.697714
vn -0.082400 -0.200110 -0.976287
vn -0.375195 -0.905698 -0.197211
vn -0.276650 -0.668020 -0.690756
vn -0.152623 -0.153630 -0.976257
vn -0.692892 -0.693197 -0.198340
vn -0.510514 -0.511307 -0.691275
vn -0.199133 -0.083468 -0.976379
vn -0.905423 -0.375591 -0.197729
vn -0.667318 -0.277505 -0.691122
vn 0.096500 0.975799 -0.196112
vn 0.020783 0.205115 -0.978515
vn 0.070956 0.712760 -0.697775
vn 0.206122 0.019868 -0.978301
vn 0.976012 0.096347 -0.195227
vn 0.713492 0.070315 -0.697073
vn 0.083407 0.199133 -0.976409
vn 0.375469 0.905484 -0.197729
vn 0.277413 0.667318 -0.691153
vn 0.153630 0.152654 -0.976257
vn 0.693136 0.692953 -0.198340
vn 0.511277 0.510575 -0.691275
vn 0.200140 0.082461 -0.976287
vn 0.905667 0.375286 -0.197211
vn 0.668020 0.276742 -0.690725
vn 0.976012 -0.096377 -0.195074
vn 0.206397 -0.021027 -0.978240
vn 0.713614 -0.071047 -0.696890
vn 0.020966 -0.206336 -0.978240
vn 0.096469 -0.976012 -0.195074
vn 0.071108 -0.713553 -0.696951
vn 0.200446 -0.083529 -0.976104
vn 0.905728 -0.375347 -0.196814
vn 0.668172 -0.277352 -0.690329
vn 0.153874 -0.153844 -0.976012
vn 0.693167 -0.693106 -0.197607
vn 0.511399 -0.511338 -0.690634
vn 0.083499 -0.200446 -0.976135
vn 0.375439 -0.905698 -0.196814
vn 0.277413 -0.668111 -0.690359
vn 0.000305 -0.000397 -0.999969
vn 0.000336 -0.000366 -0.999969
vn 0.000458 -0.000244 -0.999969
vn 0.000427 -0.000275 -0.999969
vn 0.000580 -0.000336 -0.999969
vn 0.000610 -0.000336 -0.999969
vn 0.000336 -0.000366 -0.999969
vn 0.000336 -0.000366 -0.999969
vn 0.000427 -0.000275 -0.999969
vn 0.000458 -0.000244 -0.999969
vn 0.000275 -0.000549 -0.999969
vn 0.000275 -0.000519 -0.999969
vn 0.000336 -0.000366 -0.999969
vn 0.000336 -0.000366 -0.999969
vn 0.000702 -0.000458 -0.999969
vn 0.000702 -0.000427 -0.999969
vn 0.000580 -0.000305 -0.999969
vn 0.000580 -0.000336 -0.999969
vn 0.000641 -0.000580 -0.999969
vn 0.000610 -0.000610 -0.999969
vn 0.000702 -0.000427 -0.999969
vn 0.000702 -0.000427 -0.999969
vn 0.000610 -0.000336 -0.999969
vn 0.000610 -0.000336 -0.999969
vn 0.000397 -0.000641 -0.999969
vn 0.000366 -0.000641 -0.999969
vn 0.000275 -0.000549 -0.999969
vn 0.000244 -0.000519 -0.999969
vn 0.000366 -0.000610 -0.999969
vn 0.000366 -0.000641 -0.999969
vn 0.000549 -0.000671 -0.999969
vn 0.000519 -0.000702 -0.999969
vn 0.000366 -0.000610 -0.999969
vn 0.000366 -0.000610 -0.999969
vn 0.000671 -0.000580 -0.999969
vn 0.000641 -0.000580 -0.999969
vn 0.000549 -0.000702 -0.999969
vn 0.000519 -0.000702 -0.999969
vn 0.000610 -0.000610 -0.999969
vn 0.000610 -0.000610 -0.999969
vn -0.201849 -0.977722 -0.057070
vn -0.170598 -0.983734 -0.056093
vn -0.137547 -0.988952 -0.055025
vn 0.137730 -0.988922 -0.055208
vn 0.170782 -0.983673 -0.056307
vn 0.202033 -0.977691 -0.057283
vn -0.508011 -0.859218 -0.060274
vn -0.471236 -0.879940 -0.059755
vn -0.431532 -0.900143 -0.059114
vn -0.899625 -0.432630 -0.058779
vn -0.879391 -0.472335 -0.059450
vn -0.858577 -0.509110 -0.059999
vn -0.977569 -0.202826 -0.056551
vn -0.983612 -0.171484 -0.055544
vn -0.988861 -0.138340 -0.054445
vn -0.977813 0.201453 -0.056917
vn -0.983795 0.170324 -0.055940
vn -0.988983 0.137425 -0.054842
vn -0.705405 -0.706259 -0.059725
vn -0.705405 -0.706259 -0.059755
vn -0.705405 -0.706229 -0.059786
vn -0.859340 0.507797 -0.060366
vn -0.879971 0.471206 -0.059847
vn -0.900082 0.431654 -0.059175
vn -0.201453 0.977813 -0.056917
vn -0.170324 0.983795 -0.055940
vn -0.137425 0.988983 -0.054842
vn -0.431654 0.900082 -0.059175
vn -0.471206 0.879971 -0.059847
vn -0.507797 0.859340 -0.060366
vn 0.202826 0.977569 -0.056551
vn 0.171484 0.983612 -0.055544
vn 0.138340 0.988861 -0.054445
vn -0.705832 0.705832 -0.059999
vn -0.705802 0.705802 -0.060030
vn -0.705802 0.705802 -0.060060
vn 0.509110 0.858577 -0.059999
vn 0.472335 0.879391 -0.059450
vn 0.432630 0.899625 -0.058779
vn 0.977722 0.201849 -0.057070
vn 0.983734 0.170598 -0.056093
vn 0.988952 0.137547 -0.055025
vn 0.900143 0.431532 -0.059114
vn 0.879940 0.471236 -0.059755
vn 0.859218 0.508011 -0.060274
vn 0.977691 -0.202033 -0.057283
vn 0.983673 -0.170782 -0.056307
vn 0.988922 -0.137730 -0.055208
vn 0.706259 0.705405 -0.059725
vn 0.706259 0.705405 -0.059755
vn 0.706229 0.705405 -0.059786
vn 0.858974 -0.508347 -0.060732
vn 0.879727 -0.471603 -0.060213
vn 0.899930 -0.431867 -0.059511
vn 0.431867 -0.899930 -0.059511
vn 0.471603 -0.879727 -0.060213
vn 0.508347 -0.858974 -0.060732
vn 0.705802 -0.705802 -0.060335
vn 0.705802 -0.705802 -0.060366
vn 0.705802 -0.705802 -0.060396
vn -0.000488 -0.098148 0.995148
vn -0.000488 -0.098209 0.995148
vn -0.000458 -0.383679 0.923429
vn -0.000458 -0.383526 0.923521
vn -0.000519 -0.707327 0.706870
vn -0.000519 -0.707144 0.707022
vn -0.000488 -0.923185 0.384259
vn -0.000488 -0.923093 0.384503
vn -0.000519 -0.991943 0.126469
vn -0.000519 -0.991943 0.126652
vn 0.000061 0.100131 0.994964
vn 0.000061 0.100101 0.994964
vn 0.000275 0.386395 0.922330
vn 0.000275 0.386456 0.922269
vn 0.000519 0.705893 0.708304
vn 0.000519 0.705985 0.708213
vn 0.000671 0.918058 0.396374
vn 0.000671 0.918119 0.396283
vn 0.000702 0.996460 0.083834
vn 0.000702 0.996460 0.083712
vn -0.000671 -0.990814 0.135166
vn -0.000671 -0.990814 0.135105
vn -0.000702 -0.918699 0.394910
vn -0.000702 -0.918699 0.394910
vn -0.000549 -0.706290 0.707877
vn -0.000549 -0.706320 0.707877
vn -0.000305 -0.386395 0.922300
vn -0.000305 -0.386425 0.922300
vn -0.000061 -0.100070 0.994964
vn -0.000061 -0.100070 0.994964
vn 0.000244 0.992126 -0.125065
vn 0.000244 0.992157 -0.124851
vn 0.000244 0.923154 -0.384350
vn 0.000244 0.923093 -0.384564
vn 0.000275 0.707297 -0.706900
vn 0.000275 0.707144 -0.707053
vn 0.000244 0.383587 -0.923490
vn 0.000244 0.383435 -0.923551
vn -0.000031 -0.980621 -0.195776
vn -0.000031 -0.980621 -0.195776
vn 0.000061 -0.706931 -0.707236
vn 0.000061 -0.706931 -0.707236
vn 0.000305 -0.196051 -0.980590
vn 0.000305 -0.196051 -0.980590
vn 0.000153 -0.195929 -0.980590
vn 0.000153 -0.195959 -0.980590
vn 0.000061 -0.706870 -0.707297
vn 0.000061 -0.706839 -0.707358
vn -0.000031 -0.980621 -0.195776
vn -0.000031 -0.980621 -0.195776
vn 0.000183 0.097781 -0.995178
vn 0.000183 0.097842 -0.995178
vn 0.000122 0.980438 -0.196783
vn 0.000122 0.980438 -0.196753
vn 0.000183 0.706168 -0.707999
vn 0.000183 0.706015 -0.708152
vn 0.000214 0.194678 -0.980834
vn 0.000214 0.194464 -0.980895
vn 0.000214 0.195013 -0.980773
vn 0.000214 0.195013 -0.980773
vn 0.000183 0.706198 -0.707968
vn 0.000183 0.706198 -0.707999
vn 0.000122 0.980438 -0.196753
vn 0.000122 0.980438 -0.196753
vn 0.000183 -0.000519 -0.999969
vn 0.000183 -0.000458 -0.999969
vn 0.000183 -0.000519 -0.999969
vn 0.000183 -0.000458 -0.999969
vn 0.000610 0.998688 -0.050966
vn 0.000610 0.998688 -0.051149
vn 0.000488 0.998688 -0.050966
vn 0.000488 0.998688 -0.051149
vn 0.000336 0.998688 -0.050966
vn 0.000336 0.998688 -0.051149
vn -0.099002 0.000671 0.995056
vn -0.098972 0.000671 0.995086
vn -0.383892 0.000671 0.923368
vn -0.383923 0.000671 0.923338
vn -0.707297 0.000519 0.706870
vn -0.707327 0.000519 0.706870
vn -0.923093 0.000275 0.384503
vn -0.923093 0.000275 0.384503
vn -0.991882 0.000061 0.127018
vn -0.991882 0.000061 0.126988
vn 0.100223 0.000000 0.994964
vn 0.100223 0.000000 0.994964
vn 0.386731 0.000000 0.922178
vn 0.386731 0.000000 0.922178
vn 0.706351 0.000000 0.707846
vn 0.706320 0.000000 0.707846
vn 0.918363 0.000000 0.395672
vn 0.918363 0.000000 0.395672
vn 0.996521 -0.000031 0.083132
vn 0.996521 -0.000031 0.083132
vn -0.990722 0.000000 0.135685
vn -0.990722 0.000000 0.135685
vn -0.918607 0.000000 0.395123
vn -0.918607 0.000000 0.395123
vn -0.706381 0.000000 0.707816
vn -0.706381 0.000000 0.707785
vn -0.386578 0.000000 0.922239
vn -0.386578 0.000000 0.922239
vn -0.100131 0.000000 0.994964
vn -0.100131 0.000000 0.994964
vn 0.992096 -0.000122 -0.125278
vn 0.992096 -0.000122 -0.125278
vn 0.923124 -0.000305 -0.384442
vn 0.923124 -0.000305 -0.384472
vn 0.707389 -0.000549 -0.706809
vn 0.707358 -0.000549 -0.706809
vn 0.383801 -0.000702 -0.923399
vn 0.383862 -0.000702 -0.923368
vn 0.098849 -0.000763 -0.995086
vn 0.099124 -0.000763 -0.995056
vn -0.980438 -0.000244 -0.196722
vn -0.980438 -0.000244 -0.196722
vn -0.706259 -0.000641 -0.707938
vn -0.706259 -0.000641 -0.707938
vn -0.195105 -0.000641 -0.980773
vn -0.195074 -0.000641 -0.980773
vn -0.195196 -0.000793 -0.980743
vn -0.195166 -0.000793 -0.980743
vn -0.706320 -0.000641 -0.707877
vn -0.706351 -0.000641 -0.707816
vn -0.980438 -0.000244 -0.196722
vn -0.980438 -0.000244 -0.196722
vn 0.980621 -0.000031 -0.195776
vn 0.980621 -0.000031 -0.195776
vn 0.706931 -0.000458 -0.707236
vn 0.706931 -0.000458 -0.707266
vn 0.196265 -0.000732 -0.980529
vn 0.196142 -0.000732 -0.980560
vn 0.196112 -0.000732 -0.980560
vn 0.196112 -0.000732 -0.980560
vn 0.706992 -0.000458 -0.707205
vn 0.707022 -0.000458 -0.707175
vn 0.980621 -0.000031 -0.195746
vn 0.980621 -0.000031 -0.195746
vn 0.000519 -0.000793 -0.999969
vn 0.000458 -0.000793 -0.999969
vn 0.000519 -0.000763 -0.999969
vn 0.000458 -0.000763 -0.999969
vn 0.998657 -0.000031 -0.051576
vn 0.998657 -0.000031 -0.051546
vn 0.998657 -0.000031 -0.051576
vn 0.998657 -0.000031 -0.051546
vn 0.998657 -0.000061 -0.051576
vn 0.998657 -0.000061 -0.051546
vn -0.000671 0.098972 0.995086
vn -0.000671 0.099002 0.995056
vn -0.000671 0.383923 0.923338
vn -0.000671 0.383892 0.923368
vn -0.000519 0.707327 0.706870
vn -0.000519 0.707297 0.706870
vn -0.000275 0.923093 0.384503
vn -0.000275 0.923093 0.384503
vn -0.000061 0.991882 0.126988
vn -0.000061 0.991882 0.127018
vn 0.000000 -0.100223 0.994964
vn 0.000000 -0.100223 0.994964
vn 0.000000 -0.386731 0.922178
vn 0.000000 -0.386731 0.922178
vn 0.000000 -0.706320 0.707846
vn 0.000000 -0.706351 0.707846
vn 0.000000 -0.918363 0.395672
vn 0.000000 -0.918363 0.395672
vn 0.000031 -0.996521 0.083132
vn 0.000031 -0.996521 0.083132
vn 0.000000 0.990722 0.135685
vn 0.000000 0.990722 0.135655
vn 0.000000 0.918607 0.395123
vn 0.000000 0.918607 0.395123
vn 0.000000 0.706381 0.707785
vn 0.000000 0.706381 0.707816
vn 0.000000 0.386578 0.922239
vn 0.000000 0.386578 0.922239
vn 0.000000 0.100131 0.994964
vn 0.000000 0.100131 0.994964
vn 0.000122 -0.992096 -0.125278
vn 0.000122 -0.992096 -0.125278
vn 0.000305 -0.923124 -0.384472
vn 0.000305 -0.923124 -0.384442
vn 0.000549 -0.707358 -0.706809
vn 0.000549 -0.707389 -0.706809
vn 0.000702 -0.383862 -0.923368
vn 0.000702 -0.383831 -0.923368
vn 0.000610 0.195074 -0.980773
vn 0.000610 0.195074 -0.980773
vn 0.000580 0.706229 -0.707938
vn 0.000580 0.706229 -0.707968
vn 0.000153 0.980438 -0.196722
vn 0.000153 0.980438 -0.196753
vn 0.000793 0.194952 -0.980804
vn 0.000793 0.194983 -0.980773
vn 0.000580 0.706168 -0.707999
vn 0.000580 0.706137 -0.708060
vn 0.000153 0.980438 -0.196753
vn 0.000153 0.980438 -0.196753
vn 0.000763 -0.099124 -0.995056
vn 0.000763 -0.098849 -0.995086
vn 0.000122 -0.980651 -0.195715
vn 0.000122 -0.980651 -0.195746
vn 0.000519 -0.707114 -0.707083
vn 0.000519 -0.707175 -0.707022
vn 0.000763 -0.196326 -0.980529
vn 0.000732 -0.196478 -0.980499
vn 0.000763 -0.195990 -0.980590
vn 0.000763 -0.195990 -0.980590
vn 0.000519 -0.706900 -0.707266
vn 0.000519 -0.706900 -0.707297
vn 0.000122 -0.980621 -0.195776
vn 0.000122 -0.980621 -0.195776
vn 0.000793 -0.000458 -0.999969
vn 0.000793 -0.000488 -0.999969
vn 0.000793 -0.000458 -0.999969
vn 0.000793 -0.000488 -0.999969
vn 0.000031 -0.998657 -0.051546
vn 0.000031 -0.998657 -0.051576
vn 0.000031 -0.998657 -0.051546
vn 0.000031 -0.998657 -0.051576
vn 0.000061 -0.998657 -0.051546
vn 0.000061 -0.998657 -0.051576
vn 0.098239 0.000488 0.995148
vn 0.098148 0.000488 0.995148
vn 0.383526 0.000458 0.923521
vn 0.383679 0.000458 0.923429
vn 0.707144 0.000519 0.707022
vn 0.707327 0.000519 0.706870
vn 0.923093 0.000488 0.384503
vn 0.923185 0.000488 0.384259
vn 0.991943 0.000519 0.126652
vn 0.991943 0.000519 0.126469
vn -0.100101 -0.000061 0.994964
vn -0.100131 -0.000061 0.994964
vn -0.386456 -0.000275 0.922269
vn -0.386395 -0.000275 0.922330
vn -0.705985 -0.000519 0.708213
vn -0.705893 -0.000519 0.708304
vn -0.918119 -0.000671 0.396283
vn -0.918058 -0.000671 0.396374
vn -0.996460 -0.000702 0.083712
vn -0.996460 -0.000702 0.083834
vn 0.990814 0.000671 0.135105
vn 0.990814 0.000671 0.135166
vn 0.918699 0.000702 0.394910
vn 0.918699 0.000702 0.394910
vn 0.706320 0.000549 0.707877
vn 0.706290 0.000549 0.707877
vn 0.386425 0.000305 0.922300
vn 0.386395 0.000305 0.922300
vn 0.100070 0.000061 0.994964
vn 0.100070 0.000061 0.994964
vn -0.097934 -0.000183 -0.995178
vn -0.097873 -0.000183 -0.995178
vn -0.992157 -0.000244 -0.124851
vn -0.992126 -0.000244 -0.125065
vn -0.923093 -0.000244 -0.384564
vn -0.923154 -0.000244 -0.384350
vn -0.707144 -0.000275 -0.707053
vn -0.707297 -0.000275 -0.706900
vn -0.383435 -0.000244 -0.923551
vn -0.383587 -0.000244 -0.923490
vn 0.980621 0.000153 -0.195746
vn 0.980621 0.000153 -0.195746
vn 0.706961 0.000000 -0.707205
vn 0.706961 0.000000 -0.707236
vn 0.196051 -0.000275 -0.980560
vn 0.196051 -0.000275 -0.980560
vn 0.196173 -0.000122 -0.980560
vn 0.196142 -0.000122 -0.980560
vn 0.707022 0.000000 -0.707175
vn 0.707053 0.000000 -0.707114
vn 0.980621 0.000153 -0.195746
vn 0.980651 0.000153 -0.195746
vn -0.980438 -0.000214 -0.196783
vn -0.980438 -0.000214 -0.196783
vn -0.705985 -0.000275 -0.708213
vn -0.706076 -0.000275 -0.708121
vn -0.194494 -0.000214 -0.980895
vn -0.194647 -0.000214 -0.980865
vn -0.195135 -0.000244 -0.980773
vn -0.195135 -0.000244 -0.980743
vn -0.706290 -0.000275 -0.707907
vn -0.706290 -0.000275 -0.707877
vn -0.980438 -0.000244 -0.196722
vn -0.980438 -0.000244 -0.196722
vn 0.000458 -0.000183 -0.999969
vn 0.000519 -0.000183 -0.999969
vn 0.000458 -0.000183 -0.999969
vn 0.000488 -0.000183 -0.999969
vn -0.998688 -0.000610 -0.051149
vn -0.998688 -0.000610 -0.050966
vn -0.998688 -0.000488 -0.051149
vn -0.998688 -0.000488 -0.050966
vn -0.998688 -0.000336 -0.051149
vn -0.998688 -0.000336 -0.050966
f 693//693 111//111 101//101
f 101//101 694//694 693//693
f 723//723 349//349 362//362
f 362//362 724//724 723//723
f 117//117 216//216 211//211
f 211//211 112//112 117//117
f 708//708 326//326 338//338
f 338//338 709//709 708//708
f 682//682 107//107 121//121
f 121//121 688//688 682//682
f 910//910 277//277 76//76
f 76//76 899//899 910//910
f 717//717 334//334 330//330
f 330//330 705//705 717//717
f 732//732 357//357 353//353
f 353//353 720//720 732//732
f 11//11 212//212 217//217
f 217//217 16//16 11//11
f 688//688 121//121 116//116
f 116//116 700//700 688//688
f 21//21 222//222 206//206
f 206//206 6//6 21//21
f 36//36 236//236 241//241
f 241//241 41//41 36//36
f 266//266 66//66 61//61
f 61//61 261//261 266//266
f 226//226 127//127 136//136
f 136//136 237//237 226//226
f 237//237 136//136 141//141
f 141//141 242//242 237//237
f 242//242 141//141 146//146
f 146//146 247//247 242//242
f 247//247 146//146 131//131
f 131//131 232//232 247//247
f 106//106 207//207 221//221
f 221//221 122//122 106//106
f 814//814 714//714 343//343
f 343//343 773//773 814//814
f 122//122 221//221 216//216
f 216//216 117//117 122//122
f 992//992 232//232 131//131
f 131//131 975//975 992//992
f 251//251 152//152 161//161
f 161//161 262//262 251//251
f 262//262 161//161 166//166
f 166//166 267//267 262//262
f 267//267 166//166 171//171
f 171//171 272//272 267//267
f 272//272 171//171 156//156
f 156//156 257//257 272//272
f 276//276 177//177 186//186
f 186//186 287//287 276//276
f 287//287 186//186 191//191
f 191//191 292//292 287//287
f 292//292 191//191 196//196
f 196//196 297//297 292//292
f 297//297 196//196 181//181
f 181//181 282//282 297//297
f 770//770 257//257 156//156
f 156//156 753//753 770//770
f 709//709 338//338 334//334
f 334//334 717//717 709//709
f 888//888 729//729 366//366
f 366//366 847//847 888//888
f 720//720 353//353 343//343
f 343//343 714//714 720//720
f 918//918 207//207 106//106
f 106//106 901//901 918//918
f 700//700 116//116 111//111
f 111//111 693//693 700//700
f 705//705 330//330 322//322
f 322//322 699//699 705//705
f 1036//1036 699//699 322//322
f 322//322 997//997 1036//1036
f 844//844 282//282 181//181
f 181//181 827//827 844//844
f 724//724 362//362 357//357
f 357//357 732//732 724//724
f 741//741 379//379 375//375
f 375//375 735//735 741//741
f 735//735 375//375 366//366
f 366//366 729//729 735//735
f 685//685 371//371 384//384
f 384//384 736//736 685//685
f 736//736 384//384 379//379
f 379//379 741//741 736//736
f 1//1 202//202 212//212
f 212//212 11//11 1//1
f 271//271 71//71 66//66
f 66//66 266//266 271//271
f 96//96 296//296 281//281
f 281//281 81//81 96//96
f 76//76 277//277 286//286
f 286//286 86//86 76//76
f 256//256 56//56 71//71
f 71//71 271//271 256//256
f 86//86 286//286 291//291
f 291//291 91//91 86//86
f 91//91 291//291 296//296
f 296//296 96//96 91//91
