v -0.685835 0.053084 0.727758
v -0.635835 0.053084 0.727758
v -0.385835 0.572684 0.727757
v -0.360835 0.529384 0.727757
v -0.685836 0.053084 0.397651
v -0.635836 0.053084 0.397651
v -0.385836 0.572684 0.397651
v -0.360836 0.529384 0.397651
f 6 2 4
f 4 8 6
f 5 1 3
f 3 7 5
