v -0.085838 -0.046916 1.102757
v -0.085838 -0.046916 1.052757
v -0.385835 -0.566516 0.777757
v -0.360835 -0.523216 0.777757
v -0.685835 -0.046916 0.777758
v -0.635835 -0.046916 0.777758
f 4 6 2
f 5 3 1
